%YAML 1.1
%TAG !u! tag:unity3d.com,2011:
--- !u!74 &7400000
AnimationClip:
  m_ObjectHideFlags: 0
  m_PrefabParentObject: {fileID: 0}
  m_PrefabInternal: {fileID: 0}
  m_Name: Close_Inside
  serializedVersion: 4
  m_AnimationType: 1
  m_Compressed: 0
  m_UseHighQualityCurve: 1
  m_RotationCurves:
  - curve:
      serializedVersion: 2
      m_Curve:
      - time: 0
        value: {x: 0, y: -.744241536, z: 0, w: .667910576}
        inSlope: {x: 0, y: .0620770417, z: 0, w: .0690615177}
        outSlope: {x: 0, y: .0620770417, z: 0, w: .0690615177}
        tangentMode: -559038737
      - time: .266666681
        value: {x: 0, y: -.517503023, z: 0, w: .85568136}
        inSlope: {x: 0, y: 1.5501492, z: 0, w: .936839402}
        outSlope: {x: 0, y: 1.5501492, z: 0, w: .936839402}
        tangentMode: -559038737
      - time: .450000167
        value: {x: 0, y: -.206850007, z: 0, w: .978372693}
        inSlope: {x: 0, y: 1.6195097, z: 0, w: .343333185}
        outSlope: {x: 0, y: 1.6195097, z: 0, w: .343333185}
        tangentMode: -559038737
      - time: .666666687
        value: {x: 0, y: 0, z: 0, w: 1}
        inSlope: {x: 0, y: .0928635746, z: 0, w: 7.15256392e-05}
        outSlope: {x: 0, y: .0928635746, z: 0, w: 7.15256392e-05}
        tangentMode: -559038737
      m_PreInfinity: 2
      m_PostInfinity: 2
    path: 
  m_CompressedRotationCurves: []
  m_PositionCurves: []
  m_ScaleCurves: []
  m_FloatCurves: []
  m_PPtrCurves: []
  m_SampleRate: 60
  m_WrapMode: 0
  m_Bounds:
    m_Center: {x: 0, y: 0, z: 0}
    m_Extent: {x: 0, y: 0, z: 0}
  m_AnimationClipSettings:
    serializedVersion: 2
    m_StartTime: 0
    m_StopTime: 1
    m_OrientationOffsetY: 0
    m_Level: 0
    m_CycleOffset: 0
    m_LoopTime: 0
    m_LoopBlend: 0
    m_LoopBlendOrientation: 0
    m_LoopBlendPositionY: 0
    m_LoopBlendPositionXZ: 0
    m_KeepOriginalOrientation: 0
    m_KeepOriginalPositionY: 1
    m_KeepOriginalPositionXZ: 0
    m_HeightFromFeet: 0
    m_Mirror: 0
  m_EditorCurves:
  - curve:
      serializedVersion: 2
      m_Curve:
      - time: 0
        value: 0
        inSlope: 0
        outSlope: 0
        tangentMode: 0
      - time: .266666681
        value: 0
        inSlope: 0
        outSlope: 0
        tangentMode: 0
      - time: .450000167
        value: 0
        inSlope: 0
        outSlope: 0
        tangentMode: 0
      - time: .666666687
        value: 0
        inSlope: 0
        outSlope: 0
        tangentMode: 0
      m_PreInfinity: 2
      m_PostInfinity: 2
    attribute: m_LocalRotation.x
    path: 
    classID: 4
    script: {fileID: 0}
  - curve:
      serializedVersion: 2
      m_Curve:
      - time: 0
        value: -.744241536
        inSlope: .0620770417
        outSlope: .0620770417
        tangentMode: 0
      - time: .266666681
        value: -.517503023
        inSlope: 1.5501492
        outSlope: 1.5501492
        tangentMode: 0
      - time: .450000167
        value: -.206850007
        inSlope: 1.6195097
        outSlope: 1.6195097
        tangentMode: 0
      - time: .666666687
        value: 0
        inSlope: .0928635746
        outSlope: .0928635746
        tangentMode: 0
      m_PreInfinity: 2
      m_PostInfinity: 2
    attribute: m_LocalRotation.y
    path: 
    classID: 4
    script: {fileID: 0}
  - curve:
      serializedVersion: 2
      m_Curve:
      - time: 0
        value: 0
        inSlope: 0
        outSlope: 0
        tangentMode: 0
      - time: .266666681
        value: 0
        inSlope: 0
        outSlope: 0
        tangentMode: 0
      - time: .450000167
        value: 0
        inSlope: 0
        outSlope: 0
        tangentMode: 0
      - time: .666666687
        value: 0
        inSlope: 0
        outSlope: 0
        tangentMode: 0
      m_PreInfinity: 2
      m_PostInfinity: 2
    attribute: m_LocalRotation.z
    path: 
    classID: 4
    script: {fileID: 0}
  - curve:
      serializedVersion: 2
      m_Curve:
      - time: 0
        value: .667910576
        inSlope: .0690615177
        outSlope: .0690615177
        tangentMode: 0
      - time: .266666681
        value: .85568136
        inSlope: .936839402
        outSlope: .936839402
        tangentMode: 0
      - time: .450000167
        value: .978372693
        inSlope: .343333185
        outSlope: .343333185
        tangentMode: 0
      - time: .666666687
        value: 1
        inSlope: 7.15256392e-05
        outSlope: 7.15256392e-05
        tangentMode: 0
      m_PreInfinity: 2
      m_PostInfinity: 2
    attribute: m_LocalRotation.w
    path: 
    classID: 4
    script: {fileID: 0}
  m_EulerEditorCurves:
  - curve:
      serializedVersion: 2
      m_Curve:
      - time: 0
        value: 0
        inSlope: 0
        outSlope: 0
        tangentMode: 10
      m_PreInfinity: 2
      m_PostInfinity: 2
    attribute: localEulerAnglesBaked.x
    path: 
    classID: 4
    script: {fileID: 0}
  - curve:
      serializedVersion: 2
      m_Curve:
      - time: 0
        value: -96.1879807
        inSlope: 0
        outSlope: 0
        tangentMode: 0
      - time: .666666687
        value: 0
        inSlope: 0
        outSlope: 0
        tangentMode: 0
      m_PreInfinity: 2
      m_PostInfinity: 2
    attribute: localEulerAnglesBaked.y
    path: 
    classID: 4
    script: {fileID: 0}
  - curve:
      serializedVersion: 2
      m_Curve:
      - time: 0
        value: 0
        inSlope: 0
        outSlope: 0
        tangentMode: 10
      m_PreInfinity: 2
      m_PostInfinity: 2
    attribute: localEulerAnglesBaked.z
    path: 
    classID: 4
    script: {fileID: 0}
  m_Events: []
