Base path: C:/Program Files (x86)/Unity/Editor/Data
Pipe name: \\.\pipe\UnityShaderCompiler-1-4372
Cmd: getPlatforms
Cmd: preprocess
  insize=782 outsize=782 ok=1
Cmd: preprocess
  insize=861 outsize=1325 ok=1
