# 3ds Max Wavefront OBJ Exporter v0.97b - (c)2007 guruware
# File Created: 13.10.2014 01:10:07

#
# object German007
#

v  6.1617 15.9134 -3.5205
v  0.0000 16.4964 -3.5469
v  0.0000 17.7100 -2.5705
v  2.0204 17.7123 -2.0371
v  2.0291 17.7179 1.4696
v  6.1657 16.8793 -0.4691
v  5.9170 11.6427 -4.7148
v  0.0000 12.2527 -5.2430
v  5.8743 5.8629 -1.9684
v  0.0000 5.8675 -3.9741
v  5.9213 10.9835 2.6034
v  5.0872 5.8629 5.0544
v  5.9158 10.9844 4.6619
v  5.6210 16.5737 3.0289
v  0.0000 5.8675 6.1366
v  0.0000 4.7977 7.1838
v  7.5985 1.9846 5.4622
v  7.5983 0.8209 -3.3344
v  0.0000 16.3773 4.2008
v  0.0000 17.7102 2.1735
v  0.0000 11.4091 5.6622
v  0.0000 0.8283 -5.5877
v  10.1123 11.9415 -2.4061
v  8.4433 9.7768 -3.1528
v  8.9541 9.1294 1.5379
v  10.7499 11.6573 1.4789
v  14.0390 9.0269 -2.3996
v  14.3148 9.1928 1.2295
v  16.4711 8.0226 1.8112
v  16.0977 7.4761 -2.9762
v  12.2285 5.8802 -2.3899
v  13.6304 4.4959 -2.9811
v  12.0928 6.2663 1.3781
v  13.6355 4.6154 2.0697
v  15.8618 4.8961 -0.6647
v  10.8226 11.3400 -2.3097
v  9.1287 9.1592 -2.9216
v  5.7598 5.6639 10.6726
v  5.5805 0.6511 10.6258
v  6.5287 0.0000 12.6023
v  6.3912 8.4521 11.2957
v  10.4805 8.5812 10.4877
v  9.3620 8.4521 9.5074
v  6.7339 8.5812 12.7430
v  9.1069 5.6639 8.6577
v  10.4523 0.0000 10.2405
v  9.1960 0.6433 8.4499
v  3.9716 6.8027 9.5191
v  8.9136 6.8027 6.5443
v  6.5815 5.1399 4.4347
v  3.1760 5.2853 6.5083
v  9.0459 0.0154 6.2388
v  6.2887 1.5158 3.8896
v  3.7077 0.0278 9.4514
v  2.8562 1.7175 5.9620
v  5.9569 5.1535 3.8433
v  4.2412 5.2114 0.9864
v  1.2838 5.4322 2.7735
v  2.8878 5.3866 5.6980
v  4.1943 1.7571 0.9084
v  1.2368 1.9779 2.6954
v  8.8763 6.1778 7.5467
v  4.8814 6.1778 9.9514
v  4.6674 0.1950 9.8956
v  8.9826 0.1858 7.2986
v  10.6334 12.9141 -1.5524
v  6.1616 15.9134 -3.5206
v  6.1658 16.8793 -0.4691
v  10.6516 12.9661 1.6024
v  11.8958 13.0834 0.4015
v  7.1779 8.7899 2.6801
v  6.8631 9.4701 0.9483
v  7.7921 10.2130 2.4991
v  9.2704 10.4637 2.9397
v  9.6239 12.0006 -3.6700
v  9.2508 10.4062 -4.5676
v  5.9191 11.3131 -1.0557
v  6.8638 9.4710 -1.9226
v  6.8091 8.3614 -0.5519
v  9.6508 12.0782 2.7298
v  11.0654 12.4937 3.1994
v  11.0246 12.3764 -3.9038
v  7.7841 10.1884 -4.4413
v  7.4529 9.0461 -3.3580
v  2.1384 19.3239 1.7962
v  5.6184 20.3497 -0.5893
v  4.4715 19.7353 6.3528
v  2.0476 19.2606 -2.1158
v  0.0000 19.2617 -2.9440
v  0.0000 20.1220 -3.8684
v  4.4442 21.1871 -3.2328
v  6.8185 22.2648 -0.0438
v  6.3442 23.8868 5.9114
v  6.9894 29.0929 5.9977
v  0.0000 29.4965 8.5729
v  0.0000 23.9285 7.8417
v  4.9070 23.0647 7.5160
v  0.0000 22.5968 9.5096
v  7.8180 23.2779 -7.1759
v  10.9509 29.3218 0.6711
v  7.9955 25.9578 0.1532
v  5.6637 24.3845 -4.9027
v  5.6135 23.4936 -4.7631
v  0.0000 22.7571 -6.5010
v  0.0000 23.6925 -6.7514
v  7.7966 25.1355 0.0709
v  10.0048 32.7655 7.8447
v  7.4273 29.6931 6.2061
v  0.0000 19.2873 2.6154
v  0.0000 19.0843 7.3450
v  4.2676 31.6311 -8.6993
v  5.7653 34.6456 -3.9590
v  10.4552 32.1658 -0.8624
v  7.3013 25.6673 -9.5186
v  4.4610 36.3374 -0.6669
v  0.0000 37.2746 -0.4289
v  0.0000 37.7913 7.9078
v  9.9382 35.5655 6.1467
v  0.0000 30.1569 8.6919
v  0.0000 21.7173 -8.6819
v  0.0000 24.6015 -12.7429
v  0.0000 35.4829 -5.9814
v  0.0000 31.8361 -10.3859
v  0.0000 34.7468 10.4042
v  2.0148 34.6917 -5.4278
v  1.4214 35.8768 -6.2088
v  1.0036 36.4278 -5.3690
v  1.4239 35.4709 -4.2402
v  1.4283 33.9082 -6.6147
v  1.0067 35.3229 -7.0481
v  0.0000 33.5795 -7.1058
v  0.0000 35.0904 -7.3953
v  0.0000 36.6526 -5.0214
v  0.0000 36.3627 -6.5311
v  0.0000 36.1837 -4.3288
v  0.0000 35.7894 -3.7476
v  -6.1617 15.9134 -3.5205
v  -2.0204 17.7123 -2.0371
v  -2.0291 17.7179 1.4696
v  -6.1657 16.8793 -0.4691
v  -5.9170 11.6427 -4.7148
v  -5.8743 5.8629 -1.9684
v  -5.9213 10.9835 2.6034
v  -5.0872 5.8629 5.0544
v  -5.9158 10.9844 4.6619
v  -5.6211 16.5737 3.0289
v  -7.5985 1.9846 5.4622
v  -7.5983 0.8209 -3.3344
v  -10.1123 11.9415 -2.4061
v  -8.4433 9.7768 -3.1528
v  -8.9540 9.1294 1.5379
v  -10.7499 11.6573 1.4789
v  -14.0390 9.0269 -2.3996
v  -16.0977 7.4761 -2.9762
v  -16.4711 8.0226 1.8112
v  -14.3148 9.1928 1.2295
v  -12.2285 5.8802 -2.3899
v  -13.6304 4.4959 -2.9811
v  -12.0928 6.2663 1.3781
v  -13.6355 4.6154 2.0697
v  -15.8618 4.8961 -0.6647
v  -9.1287 9.1592 -2.9216
v  -10.8226 11.3400 -2.3097
v  -5.4768 5.6639 10.3311
v  -6.0896 8.4521 10.9726
v  -6.1883 0.0000 12.2827
v  -5.2990 0.6511 10.2791
v  -10.2010 8.5812 10.2860
v  -6.3894 8.5812 12.4294
v  -9.1120 8.4521 9.2731
v  -8.8822 5.6639 8.4162
v  -10.1801 0.0000 10.0381
v  -8.9773 0.6433 8.2111
v  -3.7236 6.8027 9.1252
v  -3.0175 5.2853 6.0921
v  -6.4829 5.1399 4.1202
v  -8.7514 6.8027 6.2979
v  -6.2063 1.5158 3.5667
v  -8.8927 0.1573 5.9965
v  -2.7140 1.7175 5.5366
v  -3.4618 0.1698 9.0497
v  -5.8761 5.1535 3.5107
v  -2.7533 5.3866 5.2737
v  -1.2366 5.4322 2.3030
v  -4.2457 5.2114 0.6042
v  -4.2010 1.7571 0.5248
v  -1.1919 1.9779 2.2235
v  -4.6202 6.1778 9.5843
v  -8.6845 6.1778 7.2988
v  -8.7981 0.1857 7.0540
v  -4.4080 0.1950 9.5221
v  -10.6334 12.9141 -1.5524
v  -6.1658 16.8793 -0.4691
v  -6.1617 15.9134 -3.5206
v  -11.8958 13.0834 0.4015
v  -10.6516 12.9661 1.6024
v  -7.1780 8.7899 2.6801
v  -6.8632 9.4701 0.9483
v  -7.7922 10.2130 2.4991
v  -9.2704 10.4637 2.9397
v  -9.2508 10.4062 -4.5676
v  -9.6240 12.0006 -3.6700
v  -5.9192 11.3131 -1.0557
v  -6.8091 8.3614 -0.5519
v  -6.8638 9.4710 -1.9226
v  -9.6509 12.0782 2.7298
v  -5.6210 16.5737 3.0289
v  -11.0655 12.4937 3.1994
v  -11.0246 12.3764 -3.9038
v  -7.7841 10.1884 -4.4413
v  -7.4529 9.0461 -3.3580
v  -2.1384 19.3239 1.7962
v  -4.4715 19.7353 6.3528
v  -5.6184 20.3497 -0.5893
v  -2.0477 19.2606 -2.1158
v  -4.4442 21.1871 -3.2328
v  -6.3442 23.8868 5.9114
v  -6.8185 22.2648 -0.0438
v  -6.9894 29.0929 5.9977
v  -4.9070 23.0647 7.5160
v  -7.8180 23.2779 -7.1759
v  -5.6637 24.3845 -4.9027
v  -7.9955 25.9578 0.1532
v  -10.9509 29.3218 0.6711
v  -5.6135 23.4936 -4.7631
v  -7.7967 25.1355 0.0709
v  -7.4273 29.6931 6.2061
v  -10.0048 32.7655 7.8447
v  -4.2676 31.6311 -8.6993
v  -7.3012 25.6673 -9.5186
v  -10.4553 32.1658 -0.8624
v  -5.7653 34.6456 -3.9590
v  -4.4610 36.3374 -0.6669
v  -9.9382 35.5655 6.1467
v  -2.0148 34.6917 -5.4278
v  -1.4239 35.4709 -4.2402
v  -1.0036 36.4278 -5.3690
v  -1.4214 35.8768 -6.2088
v  -1.4283 33.9082 -6.6147
v  -1.0067 35.3229 -7.0481
# 240 vertices

vn 0.4072 0.6160 -0.6743
vn 0.0000 0.4927 -0.8702
vn 0.0000 0.2811 -0.9597
vn 0.5292 0.6442 -0.5522
vn 0.5543 0.6607 0.5061
vn 0.5129 0.8570 -0.0501
vn 0.3400 -0.1302 -0.9314
vn 0.0000 0.1083 -0.9941
vn 0.8564 0.1231 -0.5015
vn 0.0000 0.0030 -1.0000
vn 0.8739 -0.2768 0.3995
vn 0.6746 0.2698 0.6871
vn 0.7684 0.0726 0.6358
vn 0.4468 0.6578 0.6063
vn 0.0000 0.4259 0.9048
vn -0.0000 0.5900 0.8074
vn 0.8097 0.4744 0.3454
vn 0.7083 0.3882 -0.5896
vn 0.0000 0.5859 0.8104
vn 0.0000 0.4106 0.9118
vn 0.0000 0.1889 0.9820
vn 0.0000 0.3049 -0.9524
vn 0.6477 0.4667 -0.6022
vn -0.1414 -0.6495 -0.7471
vn -0.3502 -0.6309 0.6923
vn 0.5635 0.4769 0.6745
vn 0.3275 0.6148 -0.7175
vn 0.3451 0.7006 0.6246
vn 0.7158 0.3230 0.6191
vn 0.6559 0.2174 -0.7229
vn -0.6127 -0.4765 -0.6305
vn -0.1645 -0.7015 -0.6934
vn -0.5868 -0.4379 0.6811
vn -0.1487 -0.6766 0.7212
vn 0.7179 -0.6960 -0.0164
vn 0.5097 0.5563 -0.6563
vn -0.3197 -0.5373 -0.7804
vn -0.7571 0.4468 0.4766
vn -0.5543 -0.6543 0.5144
vn -0.7095 -0.6973 0.1018
vn -0.7265 0.6427 -0.2430
vn 0.4568 0.6505 -0.6068
vn 0.1253 0.6427 -0.7558
vn -0.7500 0.6505 0.1196
vn 0.7749 0.4500 -0.4438
vn 0.4279 -0.7023 -0.5689
vn 0.7238 -0.6473 -0.2388
vn -0.5208 0.7338 0.4362
vn 0.6217 0.7383 -0.2615
vn 0.4047 0.6096 -0.6816
vn -0.7666 0.6359 0.0888
vn 0.6442 -0.6744 -0.3609
vn 0.4245 -0.6552 -0.6250
vn -0.6204 -0.6784 0.3934
vn -0.7851 -0.6107 0.1038
vn 0.5371 0.7367 -0.4109
vn 0.6098 0.6952 -0.3804
vn -0.5881 0.7364 0.3345
vn -0.5695 0.7640 0.3034
vn 0.5269 -0.7298 -0.4355
vn -0.6719 -0.6799 0.2938
vn 0.7947 0.5454 0.2664
vn -0.1372 0.5408 0.8299
vn -0.2177 -0.6868 0.6935
vn 0.7162 -0.6844 0.1366
vn 0.5761 0.7729 -0.2660
vn 0.5098 0.6621 -0.5493
vn 0.6096 0.7921 -0.0305
vn 0.5329 0.7951 0.2896
vn 0.5442 0.8364 0.0652
vn -0.6671 -0.3593 0.6526
vn -0.5072 -0.3280 0.7969
vn -0.9070 -0.4185 0.0458
vn -0.0703 -0.2994 0.9515
vn -0.0134 -0.0978 0.9951
vn 0.1410 0.1621 -0.9767
vn 0.1979 0.1859 -0.9624
vn -0.9158 -0.3998 -0.0378
vn -0.8843 -0.4287 -0.1849
vn -0.9578 -0.2874 0.0080
vn -0.0220 -0.0860 0.9960
vn 0.3722 0.5285 0.7630
vn 0.4773 0.6254 0.6172
vn 0.4037 0.6272 -0.6661
vn -0.1923 -0.4143 -0.8896
vn -0.7033 -0.6083 -0.3680
vn -0.3171 -0.1518 -0.9362
vn 0.4757 -0.8405 0.2593
vn 0.6561 -0.7250 -0.2095
vn 0.5185 -0.7258 0.4520
vn 0.5837 -0.5892 -0.5586
vn 0.0000 -0.5075 -0.8616
vn 0.0000 -0.7204 -0.6936
vn 0.4938 -0.6727 -0.5511
vn 0.9099 -0.4063 -0.0839
vn 0.8277 -0.1163 0.5490
vn 0.5634 -0.4264 0.7076
vn 0.0000 -0.1555 0.9878
vn 0.0000 0.4228 0.9062
vn 0.5007 0.2290 0.8348
vn 0.0000 0.1237 0.9923
vn 0.6073 -0.7764 -0.1683
vn 0.9482 -0.3054 0.0876
vn 0.8286 -0.5161 0.2171
vn 0.4313 -0.9003 -0.0592
vn 0.6483 -0.3736 -0.6634
vn 0.0000 -0.4856 -0.8742
vn 0.0000 -0.9962 -0.0869
vn 0.9616 -0.2737 -0.0193
vn 0.6793 -0.1192 0.7241
vn 0.4226 -0.6067 0.6733
vn 0.0000 -0.8586 0.5127
vn 0.0000 -0.8498 0.5272
vn 0.4635 0.5319 -0.7087
vn 0.4645 0.7620 -0.4512
vn 0.8676 0.3825 -0.3179
vn 0.6638 -0.1194 -0.7383
vn 0.2756 0.9310 -0.2392
vn 0.0000 0.9808 -0.1951
vn 0.0000 0.9088 0.4172
vn 0.6888 0.6722 0.2713
vn 0.0000 -0.2822 0.9594
vn 0.0000 -0.9988 -0.0486
vn 0.0000 -0.3138 -0.9495
vn 0.0000 0.8696 -0.4937
vn 0.0000 0.5424 -0.8401
vn 0.0000 0.1656 0.9862
vn 0.9226 0.3230 -0.2109
vn 0.7464 0.5566 -0.3649
vn 0.5263 0.8468 0.0774
vn 0.6510 0.6811 0.3351
vn 0.6524 -0.0374 -0.7569
vn 0.5276 0.2645 -0.8073
vn 0.0000 -0.1877 -0.9822
vn 0.0000 0.1419 -0.9899
vn 0.0686 0.9768 0.2027
vn 0.0000 0.8353 -0.5497
vn 1.0000 0.0000 -0.0000
vn 0.3551 0.7739 0.5244
vn -0.4072 0.6160 -0.6743
vn -0.5292 0.6442 -0.5522
vn -0.5543 0.6607 0.5061
vn -0.5129 0.8570 -0.0501
vn -0.3400 -0.1302 -0.9314
vn -0.8564 0.1231 -0.5015
vn -0.8739 -0.2768 0.3995
vn -0.6746 0.2698 0.6871
vn -0.7684 0.0726 0.6358
vn -0.4468 0.6578 0.6063
vn -0.8097 0.4744 0.3454
vn -0.7083 0.3882 -0.5896
vn -0.6477 0.4667 -0.6022
vn 0.1414 -0.6495 -0.7471
vn 0.3502 -0.6309 0.6923
vn -0.5635 0.4769 0.6745
vn -0.3275 0.6148 -0.7175
vn -0.6559 0.2174 -0.7229
vn -0.7158 0.3230 0.6191
vn -0.3451 0.7006 0.6246
vn 0.6127 -0.4765 -0.6305
vn 0.1645 -0.7015 -0.6934
vn 0.5868 -0.4379 0.6811
vn 0.1487 -0.6766 0.7212
vn -0.7179 -0.6960 -0.0164
vn 0.3197 -0.5373 -0.7804
vn -0.5097 0.5563 -0.6563
vn 0.7709 0.4468 0.4540
vn 0.7190 0.6427 -0.2644
vn 0.7122 -0.6973 0.0808
vn 0.5693 -0.6543 0.4977
vn -0.4745 0.6505 -0.5930
vn 0.7532 0.6505 0.0974
vn -0.1476 0.6427 -0.7517
vn -0.7877 0.4500 -0.4207
vn -0.4446 -0.7023 -0.5560
vn -0.7306 -0.6473 -0.2173
vn 0.5334 0.7339 0.4206
vn 0.7688 0.6361 0.0657
vn -0.4247 0.6096 -0.6693
vn -0.6291 0.7384 -0.2429
vn -0.4463 -0.6648 -0.5990
vn -0.6615 -0.6556 -0.3642
vn 0.7796 -0.6200 0.0885
vn 0.6547 -0.6598 0.3688
vn -0.5490 0.7367 -0.3949
vn 0.5782 0.7640 0.2864
vn 0.5977 0.7364 0.3169
vn -0.6208 0.6952 -0.3622
vn -0.5396 -0.7298 -0.4198
vn 0.6803 -0.6799 0.2738
vn 0.1617 0.5408 0.8255
vn -0.7864 0.5455 0.2900
vn -0.6788 -0.7279 0.0967
vn 0.2732 -0.7298 0.6267
vn -0.5761 0.7729 -0.2660
vn -0.6096 0.7921 -0.0305
vn -0.5098 0.6621 -0.5493
vn -0.5442 0.8364 0.0652
vn -0.5329 0.7951 0.2896
vn 0.6671 -0.3593 0.6526
vn 0.9070 -0.4186 0.0458
vn 0.5072 -0.3280 0.7969
vn 0.0703 -0.2994 0.9515
vn 0.0134 -0.0978 0.9951
vn -0.1979 0.1859 -0.9624
vn -0.1410 0.1621 -0.9767
vn 0.9158 -0.3998 -0.0378
vn 0.9578 -0.2874 0.0080
vn 0.8843 -0.4287 -0.1849
vn 0.0220 -0.0860 0.9960
vn -0.4773 0.6254 0.6172
vn -0.3722 0.5285 0.7630
vn -0.4037 0.6272 -0.6661
vn 0.1923 -0.4143 -0.8896
vn 0.3171 -0.1518 -0.9362
vn 0.7033 -0.6083 -0.3680
vn -0.4757 -0.8405 0.2593
vn -0.5185 -0.7258 0.4520
vn -0.6561 -0.7250 -0.2095
vn -0.5837 -0.5892 -0.5586
vn -0.4938 -0.6727 -0.5511
vn -0.8277 -0.1163 0.5490
vn -0.9099 -0.4063 -0.0839
vn -0.5634 -0.4264 0.7076
vn -0.5007 0.2290 0.8348
vn -0.6073 -0.7764 -0.1683
vn -0.4313 -0.9003 -0.0592
vn -0.8286 -0.5161 0.2171
vn -0.9482 -0.3054 0.0876
vn -0.6483 -0.3736 -0.6634
vn -0.9616 -0.2736 -0.0193
vn -0.4226 -0.6067 0.6733
vn -0.6793 -0.1192 0.7241
vn -0.4635 0.5319 -0.7087
vn -0.6638 -0.1194 -0.7383
vn -0.8676 0.3825 -0.3179
vn -0.4645 0.7620 -0.4512
vn -0.2756 0.9310 -0.2392
vn -0.6888 0.6722 0.2713
vn -0.9226 0.3230 -0.2109
vn -0.6510 0.6811 0.3351
vn -0.5263 0.8468 0.0774
vn -0.7464 0.5566 -0.3649
vn -0.6524 -0.0374 -0.7569
vn -0.5276 0.2645 -0.8073
vn -0.3546 0.7740 0.5245
vn -1.0000 0.0000 -0.0000
vn 0.5155 -0.0264 0.8565
vn -0.4900 -0.0264 0.8713
# 249 vertex normals

vt 0.0710 0.5251 0.0000
vt 0.0794 0.4934 0.0000
vt 0.0716 0.4907 0.0000
vt 0.0662 0.5004 0.0000
vt 0.0478 0.4975 0.0000
vt 0.0545 0.5212 0.0000
vt 0.0140 0.5096 0.0000
vt 0.0136 0.5057 0.0000
vt 0.0138 0.5055 0.0000
vt 0.0142 0.5097 0.0000
vt 0.0099 0.5112 0.0000
vt 0.0095 0.5068 0.0000
vt 0.0138 0.5143 0.0000
vt 0.0104 0.5162 0.0000
vt 0.0139 0.5157 0.0000
vt 0.0143 0.5150 0.0000
vt 0.0364 0.5159 0.0000
vt 0.0104 0.5160 0.0000
vt 0.0102 0.5131 0.0000
vt 0.0074 0.5132 0.0000
vt 0.0076 0.5175 0.0000
vt 0.0069 0.5170 0.0000
vt 0.0060 0.5114 0.0000
vt 0.0323 0.4858 0.0000
vt 0.0451 0.4864 0.0000
vt 0.0048 0.4870 0.0000
vt 0.0057 0.5190 0.0000
vt 0.0132 0.5163 0.0000
vt 0.0133 0.5130 0.0000
vt 0.0062 0.5063 0.0000
vt 0.8515 0.9414 0.0000
vt 0.8518 0.9414 0.0000
vt 0.8514 0.9419 0.0000
vt 0.8511 0.9415 0.0000
vt 0.8510 0.9420 0.0000
vt 0.8523 0.9419 0.0000
vt 0.8529 0.9423 0.0000
vt 0.8526 0.9426 0.0000
vt 0.8521 0.9423 0.0000
vt 0.8521 0.9415 0.0000
vt 0.8519 0.9420 0.0000
vt 0.8512 0.9421 0.0000
vt 0.8513 0.9417 0.0000
vt 0.8517 0.9417 0.0000
vt 0.8515 0.9422 0.0000
vt 0.8518 0.9427 0.0000
vt 0.8514 0.9426 0.0000
vt 0.8519 0.9424 0.0000
vt 0.8524 0.9420 0.0000
vt 0.8523 0.9424 0.0000
vt 0.8521 0.9419 0.0000
vt 0.8522 0.9415 0.0000
vt 0.8518 0.9421 0.0000
vt 0.8514 0.9420 0.0000
vt 0.8510 0.9421 0.0000
vt 0.8525 0.9427 0.0000
vt 0.8520 0.9427 0.0000
vt 0.8517 0.9425 0.0000
vt 0.8513 0.9424 0.0000
vt 0.8510 0.9424 0.0000
vt 0.8523 0.9429 0.0000
vt 0.4735 0.0175 0.0000
vt 0.4681 0.0175 0.0000
vt 0.4675 0.0152 0.0000
vt 0.4765 0.0167 0.0000
vt 0.4639 0.0171 0.0000
vt 0.4643 0.0187 0.0000
vt 0.4610 0.0205 0.0000
vt 0.4599 0.0195 0.0000
vt 0.4660 0.0213 0.0000
vt 0.4624 0.0234 0.0000
vt 0.4546 0.0198 0.0000
vt 0.4550 0.0182 0.0000
vt 0.4635 0.0219 0.0000
vt 0.4630 0.0228 0.0000
vt 0.4722 0.0230 0.0000
vt 0.4719 0.0246 0.0000
vt 0.4625 0.0173 0.0000
vt 0.4626 0.0149 0.0000
vt 0.4671 0.0176 0.0000
vt 0.4570 0.0217 0.0000
vt 0.4620 0.0238 0.0000
vt 0.0540 0.0135 0.0000
vt 0.0635 0.0135 0.0000
vt 0.0637 0.0231 0.0000
vt 0.0536 0.0230 0.0000
vt 0.0538 0.0105 0.0000
vt 0.0657 0.0105 0.0000
vt 0.0646 0.0215 0.0000
vt 0.0544 0.0201 0.0000
vt 0.0539 0.0107 0.0000
vt 0.0642 0.0104 0.0000
vt 0.0544 0.0218 0.0000
vt 0.0534 0.0123 0.0000
vt 0.0652 0.0131 0.0000
vt 0.0644 0.0226 0.0000
vt 0.0543 0.0234 0.0000
vt 0.0637 0.0254 0.0000
vt 0.0636 0.0339 0.0000
vt 0.0539 0.0339 0.0000
vt 0.0534 0.0254 0.0000
vt 0.0642 0.0308 0.0000
vt 0.0545 0.0308 0.0000
vt 0.0544 0.0224 0.0000
vt 0.0645 0.0309 0.0000
vt 0.0548 0.0310 0.0000
vt 0.0645 0.0250 0.0000
vt 0.0638 0.0334 0.0000
vt 0.0541 0.0327 0.0000
vt 0.4670 0.0222 0.0000
vt 0.4627 0.0247 0.0000
vt 0.4674 0.0189 0.0000
vt 0.4620 0.0185 0.0000
vt 0.4620 0.0251 0.0000
vt 0.4561 0.0226 0.0000
vt 0.4740 0.0188 0.0000
vt 0.4676 0.0188 0.0000
vt 0.0641 0.0276 0.0000
vt 0.0685 0.0252 0.0000
vt 0.0696 0.0258 0.0000
vt 0.0642 0.0289 0.0000
vt 0.0635 0.0215 0.0000
vt 0.0689 0.0219 0.0000
vt 0.0694 0.0231 0.0000
vt 0.0628 0.0227 0.0000
vt 0.0576 0.0256 0.0000
vt 0.0635 0.0281 0.0000
vt 0.0638 0.0294 0.0000
vt 0.0566 0.0264 0.0000
vt 0.0691 0.0217 0.0000
vt 0.0755 0.0217 0.0000
vt 0.0761 0.0228 0.0000
vt 0.0682 0.0228 0.0000
vt 0.0329 0.4884 0.0000
vt 0.0338 0.4864 0.0000
vt 0.0328 0.4864 0.0000
vt 0.0323 0.4885 0.0000
vt 0.0326 0.4885 0.0000
vt 0.0310 0.4884 0.0000
vt 0.0312 0.4872 0.0000
vt 0.0308 0.4880 0.0000
vt 0.0313 0.4885 0.0000
vt 0.0315 0.4885 0.0000
vt 0.0334 0.4883 0.0000
vt 0.0335 0.4883 0.0000
vt 0.0304 0.4870 0.0000
vt 0.0303 0.4883 0.0000
vt 0.0305 0.4883 0.0000
vt 0.0311 0.4884 0.0000
vt 0.0318 0.4885 0.0000
vt 0.0320 0.4886 0.0000
vt 0.0320 0.4863 0.0000
vt 0.0333 0.4883 0.0000
vt 0.0337 0.4884 0.0000
vt 0.0338 0.4884 0.0000
vt 0.0346 0.4874 0.0000
vt 0.0296 0.4868 0.0000
vt 0.0300 0.4882 0.0000
vt 0.7128 0.7243 0.0000
vt 0.7223 0.7145 0.0000
vt 0.6986 0.7138 0.0000
vt 0.7292 0.7254 0.0000
vt 0.7336 0.7334 0.0000
vt 0.7408 0.7323 0.0000
vt 0.7375 0.7136 0.0000
vt 0.8510 0.9404 0.0000
vt 0.8911 0.9394 0.0000
vt 0.8903 0.9526 0.0000
vt 0.8578 0.9662 0.0000
vt 0.8609 0.9957 0.0000
vt 0.8181 0.9973 0.0000
vt 0.8198 0.9650 0.0000
vt 0.8469 0.9596 0.0000
vt 0.8177 0.9525 0.0000
vt 0.5457 0.3424 0.0000
vt 0.5484 0.3438 0.0000
vt 0.5474 0.3444 0.0000
vt 0.5456 0.3435 0.0000
vt 0.4691 0.0200 0.0000
vt 0.4705 0.0204 0.0000
vt 0.4696 0.0229 0.0000
vt 0.4681 0.0223 0.0000
vt 0.8922 0.9395 0.0000
vt 0.8929 0.9695 0.0000
vt 0.8937 0.9680 0.0000
vt 0.5451 0.3441 0.0000
vt 0.5430 0.3439 0.0000
vt 0.5437 0.3430 0.0000
vt 0.5456 0.3430 0.0000
vt 0.7072 0.7174 0.0000
vt 0.7075 0.7167 0.0000
vt 0.7063 0.7158 0.0000
vt 0.7059 0.7174 0.0000
vt 0.8263 0.9305 0.0000
vt 0.8951 0.9672 0.0000
vt 0.8932 0.9395 0.0000
vt 0.5635 0.3740 0.0000
vt 0.5442 0.3704 0.0000
vt 0.5400 0.3504 0.0000
vt 0.5771 0.3559 0.0000
vt 0.5453 0.3430 0.0000
vt 0.5452 0.3449 0.0000
vt 0.5417 0.3449 0.0000
vt 0.5425 0.3407 0.0000
vt 0.5453 0.3442 0.0000
vt 0.5444 0.3444 0.0000
vt 0.5433 0.3428 0.0000
vt 0.5450 0.3429 0.0000
vt 0.4664 0.0192 0.0000
vt 0.4655 0.0210 0.0000
vt 0.4638 0.0197 0.0000
vt 0.4650 0.0184 0.0000
vt 0.5450 0.3418 0.0000
vt 0.5432 0.3437 0.0000
vt 0.5422 0.3426 0.0000
vt 0.5467 0.3425 0.0000
vt 0.5475 0.3449 0.0000
vt 0.5487 0.3431 0.0000
vt 0.5494 0.3449 0.0000
vt 0.5434 0.3413 0.0000
vt 0.5452 0.3414 0.0000
vt 0.5464 0.3439 0.0000
vt 0.5434 0.3444 0.0000
vt 0.5767 0.3443 0.0000
vt 0.5416 0.3398 0.0000
vt 0.5451 0.3422 0.0000
vt 0.5433 0.3421 0.0000
vt 0.5427 0.3423 0.0000
vt 0.5458 0.3417 0.0000
vt 0.5457 0.3427 0.0000
vt 0.5426 0.3432 0.0000
vt 0.7089 0.7165 0.0000
vt 0.7077 0.7169 0.0000
vt 0.7075 0.7161 0.0000
vt 0.7086 0.7157 0.0000
vt 0.7057 0.7174 0.0000
vt 0.7057 0.7165 0.0000
vt 0.7066 0.7174 0.0000
vt 0.7062 0.7162 0.0000
vt 0.7071 0.7160 0.0000
vt 0.7074 0.7171 0.0000
vt 0.4682 0.0199 0.0000
vt 0.4668 0.0217 0.0000
vt 0.5436 0.3443 0.0000
vt 0.5434 0.3442 0.0000
vt 0.5457 0.3441 0.0000
vt 0.4666 0.0144 0.0000
vt 0.4664 0.0178 0.0000
vt 0.4640 0.0181 0.0000
vt 0.4632 0.0148 0.0000
vt 0.4699 0.0150 0.0000
vt 0.4688 0.0183 0.0000
vt 0.4729 0.0166 0.0000
vt 0.4710 0.0193 0.0000
vt 0.4618 0.0190 0.0000
vt 0.4641 0.0215 0.0000
vt 0.4656 0.0211 0.0000
vt 0.4671 0.0212 0.0000
vt 0.4685 0.0216 0.0000
vt 0.4609 0.0174 0.0000
vt 0.4601 0.0161 0.0000
vt 0.5458 0.3460 0.0000
vt 0.5472 0.3440 0.0000
vt 0.5433 0.3434 0.0000
vt 0.5437 0.3456 0.0000
vt 0.5472 0.3428 0.0000
vt 0.5434 0.3423 0.0000
vt 0.7087 0.7157 0.0000
vt 0.7088 0.7166 0.0000
vt 0.7075 0.7160 0.0000
vt 0.7055 0.7166 0.0000
vt 0.7063 0.7162 0.0000
vt 0.7071 0.7159 0.0000
vt 0.4620 0.0236 0.0000
vt 0.4620 0.0196 0.0000
vt 0.4695 0.0197 0.0000
vt 0.4695 0.0235 0.0000
vt 0.4620 0.0193 0.0000
vt 0.4620 0.0153 0.0000
vt 0.4695 0.0154 0.0000
vt 0.4695 0.0192 0.0000
# 281 texture coords

g German007
s 1
f 1/1/1 2/2/2 3/3/3 4/4/4 
f 5/5/5 6/6/6 4/4/4 
f 7/7/7 8/8/8 2/9/2 1/10/1 
f 7/7/7 9/11/9 10/12/10 8/8/8 
f 11/13/11 12/14/12 9/11/9 7/7/7 
f 12/14/12 11/13/11 13/15/13 
f 11/13/11 14/16/14 13/15/13 
f 5/5/5 14/17/14 6/6/6 
f 6/6/6 1/1/1 4/4/4 
f 12/18/12 15/19/15 16/20/16 17/21/17 
f 9/11/9 12/14/12 17/22/17 18/23/18 
f 19/24/19 14/17/14 5/5/5 20/25/20 
f 21/26/21 13/27/13 14/17/14 19/24/19 
f 15/19/15 12/18/12 13/28/13 21/29/21 
f 10/12/10 9/11/9 18/23/18 22/30/22 
f 1/31/1 6/32/6 23/33/23 
f 7/34/7 1/31/1 23/33/23 24/35/24 
f 11/36/11 7/37/7 24/38/24 25/39/25 
f 14/40/14 11/36/11 25/39/25 26/41/26 
f 27/42/27 28/43/28 29/44/29 30/45/30 
f 31/46/31 27/47/27 30/45/30 32/48/32 
f 33/49/33 31/50/31 32/48/32 34/51/34 
f 28/32/28 33/52/33 34/51/34 29/44/29 
f 30/45/30 29/44/29 35/53/35 
f 32/48/32 30/45/30 35/53/35 
f 34/51/34 32/48/32 35/53/35 
f 29/44/29 34/51/34 35/53/35 
f 23/33/23 36/54/36 37/55/37 24/35/24 
f 24/38/24 37/56/37 25/39/25 
f 25/39/25 33/57/33 28/58/28 26/41/26 
f 26/41/26 36/54/36 23/33/23 
f 6/32/6 14/40/14 26/41/26 
f 6/32/6 26/41/26 23/33/23 
f 36/54/36 27/59/27 31/60/31 37/55/37 
f 26/41/26 28/58/28 27/59/27 36/54/36 
f 37/56/37 31/61/31 33/57/33 25/39/25 
f 38/62/38 39/63/39 40/64/40 41/65/41 
f 42/66/42 43/67/43 41/68/41 44/69/44 
f 43/67/43 45/70/45 38/71/38 41/68/41 
f 43/72/43 42/73/42 46/74/46 
f 40/75/40 44/76/44 41/77/41 
f 47/78/47 46/79/46 40/64/40 39/80/39 
f 45/81/45 43/72/43 46/74/46 47/82/47 
f 48/83/48 49/84/49 50/85/50 51/86/51 
f 49/87/49 52/88/52 53/89/53 50/90/50 
f 52/91/52 54/92/54 55/89/55 53/93/53 
f 54/94/54 48/95/48 51/96/51 55/97/55 
f 56/98/56 57/99/57 58/100/58 59/101/59 
f 53/89/53 60/102/60 57/103/57 56/104/56 
f 55/89/55 61/105/61 60/106/60 53/93/53 
f 59/107/59 58/108/58 61/109/61 55/97/55 
f 50/85/50 56/98/56 59/101/59 51/86/51 
f 51/96/51 59/107/59 55/97/55 
f 53/89/53 56/104/56 50/90/50 
f 38/71/38 45/70/45 62/110/62 63/111/63 
f 47/78/47 39/80/39 64/112/64 65/113/65 
f 45/81/45 47/82/47 65/114/65 62/115/62 
f 39/63/39 38/62/38 63/116/63 64/117/64 
f 63/118/63 62/119/62 49/120/49 48/121/48 
f 65/122/65 64/123/64 54/124/54 52/125/52 
f 62/126/62 65/127/65 52/128/52 49/129/49 
f 64/130/64 63/131/63 48/132/48 54/133/54 
f 66/134/66 67/135/67 68/136/68 
f 68/136/68 69/137/69 70/138/70 
f 71/139/71 11/140/72 72/141/73 
f 73/142/74 74/143/75 11/140/72 
f 67/135/67 75/144/76 76/145/77 
f 77/146/78 78/147/79 79/148/80 
f 72/141/73 77/146/78 79/148/80 
f 11/140/72 71/149/71 73/142/74 
f 80/150/81 81/151/82 14/152/83 
f 14/152/83 81/151/82 69/137/69 
f 69/137/69 68/136/68 14/152/83 
f 68/136/68 70/138/70 66/134/66 
f 66/134/66 82/153/84 67/135/67 
f 83/154/85 84/155/86 7/156/87 
f 67/135/67 82/153/84 75/144/76 
f 77/146/78 7/157/87 78/147/79 
f 7/157/87 84/158/86 78/147/79 
f 11/140/72 77/146/78 72/141/73 
f 76/145/77 83/154/85 7/156/87 
f 76/145/77 7/156/87 67/135/67 
f 74/143/75 14/152/83 11/140/72 
f 74/143/75 80/150/81 14/152/83 
f 85/159/88 86/160/89 87/161/90 
f 88/162/91 89/163/92 90/164/93 91/165/94 
f 87/166/90 86/167/89 92/168/95 93/169/96 
f 94/170/97 95/171/98 96/172/99 93/169/96 
f 87/166/90 93/169/96 97/173/100 
f 93/169/96 96/172/99 98/174/101 97/173/100 
s 3
f 99/175/102 100/176/103 101/177/104 102/178/105 
f 103/179/106 104/180/107 105/181/108 102/182/105 
s 1
f 86/167/89 91/183/94 92/168/95 
f 92/168/95 106/184/109 94/170/97 93/169/96 
f 103/185/106 106/184/109 92/168/95 91/183/94 
f 88/162/91 91/165/94 86/160/89 
f 85/159/88 88/162/91 86/160/89 
s 3
f 100/186/103 107/187/110 108/188/111 101/189/104 
s 1
f 109/190/112 85/191/88 87/192/90 110/193/113 
f 110/194/113 87/166/90 97/173/100 98/174/101 
f 104/195/107 103/185/106 91/183/94 90/196/93 
f 111/197/114 112/198/115 113/199/116 114/200/117 
f 115/201/118 116/202/119 117/203/120 118/204/121 
f 112/205/115 115/206/118 118/207/121 113/208/116 
s 3
f 94/209/97 108/210/111 119/211/122 95/212/98 
s 1
f 114/213/117 99/175/102 120/214/123 121/215/124 
f 116/202/119 115/201/118 112/216/115 122/217/125 
f 122/217/125 112/216/115 111/218/114 123/219/126 
f 123/220/126 111/221/114 114/222/117 121/223/124 
f 99/224/102 114/200/117 113/199/116 100/225/103 
f 100/226/103 113/208/116 118/207/121 107/227/110 
f 118/228/121 117/229/120 124/230/127 107/231/110 
f 89/232/92 88/233/91 4/234/4 3/235/3 
f 88/233/91 85/236/88 5/237/5 4/234/4 
f 85/238/88 109/239/112 20/240/20 5/241/5 
s 3
f 106/242/109 103/179/106 102/182/105 101/243/104 
f 120/214/123 99/175/102 102/178/105 105/244/108 
f 94/209/97 106/242/109 101/243/104 108/210/111 
f 108/245/111 107/231/110 124/230/127 119/246/122 
s 1
f 125/247/128 126/248/129 127/249/130 128/250/131 
f 129/251/132 130/252/133 126/248/129 125/247/128 
f 131/253/134 132/254/135 130/252/133 129/251/132 
f 133/255/136 127/249/130 134/256/137 
f 134/257/137 127/249/130 126/248/129 
f 126/248/129 130/252/133 134/258/137 
f 130/252/133 132/254/135 134/259/137 
f 128/250/131 127/249/130 133/255/136 135/260/138 136/261/139 
f 137/1/140 138/4/141 3/3/3 2/2/2 
f 139/5/142 138/4/141 140/6/143 
f 141/7/144 137/10/140 2/9/2 8/8/8 
f 141/7/144 8/8/8 10/12/10 142/11/145 
f 143/13/146 141/7/144 142/11/145 144/14/147 
f 144/14/147 145/15/148 143/13/146 
f 143/13/146 145/15/148 146/16/149 
f 139/5/142 140/6/143 146/17/149 
f 140/6/143 138/4/141 137/1/140 
f 144/18/147 147/21/150 16/20/16 15/19/15 
f 142/11/145 148/23/151 147/22/150 144/14/147 
f 19/24/19 20/25/20 139/5/142 146/17/149 
f 21/26/21 19/24/19 146/17/149 145/27/148 
f 15/19/15 21/29/21 145/28/148 144/18/147 
f 10/12/10 22/30/22 148/23/151 142/11/145 
f 137/31/140 149/33/152 140/32/143 
f 141/34/144 150/35/153 149/33/152 137/31/140 
f 143/36/146 151/39/154 150/38/153 141/37/144 
f 146/40/149 152/41/155 151/39/154 143/36/146 
f 153/42/156 154/45/157 155/44/158 156/43/159 
f 157/46/160 158/48/161 154/45/157 153/47/156 
f 159/49/162 160/51/163 158/48/161 157/50/160 
f 156/32/159 155/44/158 160/51/163 159/52/162 
f 154/45/157 161/53/164 155/44/158 
f 158/48/161 161/53/164 154/45/157 
f 160/51/163 161/53/164 158/48/161 
f 155/44/158 161/53/164 160/51/163 
f 149/33/152 150/35/153 162/55/165 163/54/166 
f 150/38/153 151/39/154 162/56/165 
f 151/39/154 152/41/155 156/58/159 159/57/162 
f 152/41/155 149/33/152 163/54/166 
f 140/32/143 152/41/155 146/40/149 
f 140/32/143 149/33/152 152/41/155 
f 163/54/166 162/55/165 157/60/160 153/59/156 
f 152/41/155 163/54/166 153/59/156 156/58/159 
f 162/56/165 151/39/154 159/57/162 157/61/160 
f 164/62/167 165/65/168 166/64/169 167/63/170 
f 168/66/171 169/69/172 165/68/168 170/67/173 
f 170/67/173 165/68/168 164/71/167 171/70/174 
f 170/72/173 172/74/175 168/73/171 
f 166/75/169 165/77/168 169/76/172 
f 173/78/176 167/80/170 166/64/169 172/79/175 
f 171/81/174 173/82/176 172/74/175 170/72/173 
f 174/83/177 175/86/178 176/85/179 177/84/180 
f 177/87/180 176/90/179 178/89/181 179/88/182 
f 179/91/182 178/93/181 180/89/183 181/92/184 
f 181/94/184 180/97/183 175/96/178 174/95/177 
f 182/98/185 183/101/186 184/100/187 185/99/188 
f 178/89/181 182/104/185 185/103/188 186/102/189 
f 180/89/183 178/93/181 186/106/189 187/105/190 
f 183/107/186 180/97/183 187/109/190 184/108/187 
f 176/85/179 175/86/178 183/101/186 182/98/185 
f 175/96/178 180/97/183 183/107/186 
f 178/89/181 176/90/179 182/104/185 
f 164/71/167 188/111/191 189/110/192 171/70/174 
f 173/78/176 190/113/193 191/112/194 167/80/170 
f 171/81/174 189/115/192 190/114/193 173/82/176 
f 167/63/170 191/117/194 188/116/191 164/62/167 
f 188/118/191 174/121/177 177/120/180 189/119/192 
f 190/122/193 179/125/182 181/124/184 191/123/194 
f 189/126/192 177/129/180 179/128/182 190/127/193 
f 191/130/194 181/133/184 174/132/177 188/131/191 
f 192/134/195 193/136/196 194/135/197 
f 193/136/196 195/138/198 196/137/199 
f 197/139/200 198/141/201 143/140/202 
f 199/142/203 143/140/202 200/143/204 
f 194/135/197 201/145/205 202/144/206 
f 203/146/207 204/148/208 205/147/209 
f 198/141/201 204/148/208 203/146/207 
f 143/140/202 199/142/203 197/149/200 
f 206/150/210 207/152/211 208/151/212 
f 207/152/211 196/137/199 208/151/212 
f 196/137/199 207/152/211 193/136/196 
f 193/136/196 192/134/195 195/138/198 
f 192/134/195 194/135/197 209/153/213 
f 210/154/214 141/156/215 211/155/216 
f 194/135/197 202/144/206 209/153/213 
f 203/146/207 205/147/209 141/157/215 
f 141/157/215 205/147/209 211/158/216 
f 143/140/202 198/141/201 203/146/207 
f 201/145/205 141/156/215 210/154/214 
f 201/145/205 194/135/197 141/156/215 
f 200/143/204 143/140/202 207/152/211 
f 200/143/204 207/152/211 206/150/210 
f 212/159/217 213/161/218 214/160/219 
f 215/162/220 216/165/221 90/164/93 89/163/92 
f 213/166/218 217/169/222 218/168/223 214/167/219 
f 219/170/224 217/169/222 96/172/99 95/171/98 
f 213/166/218 220/173/225 217/169/222 
f 217/169/222 220/173/225 98/174/101 96/172/99 
s 3
f 221/175/226 222/178/227 223/177/228 224/176/229 
f 225/179/230 222/182/227 105/181/108 104/180/107 
s 1
f 214/167/219 218/168/223 216/183/221 
f 218/168/223 217/169/222 219/170/224 226/184/231 
f 225/185/230 216/183/221 218/168/223 226/184/231 
f 215/162/220 214/160/219 216/165/221 
f 212/159/217 214/160/219 215/162/220 
s 3
f 224/186/229 223/189/228 227/188/232 228/187/233 
s 1
f 109/190/112 110/193/113 213/192/218 212/191/217 
f 110/194/113 98/174/101 220/173/225 213/166/218 
f 104/195/107 90/196/93 216/183/221 225/185/230 
f 229/262/234 230/263/235 231/264/236 232/265/237 
f 233/201/238 234/204/239 117/203/120 116/202/119 
f 232/205/237 231/208/236 234/207/239 233/206/238 
s 3
f 219/209/224 95/212/98 119/211/122 227/210/232 
s 1
f 230/213/235 121/215/124 120/214/123 221/175/226 
f 116/202/119 122/217/125 232/216/237 233/201/238 
f 122/217/125 123/219/126 229/218/234 232/216/237 
f 123/220/126 121/223/124 230/222/235 229/221/234 
f 221/266/226 224/267/229 231/264/236 230/263/235 
f 224/226/229 228/227/233 234/207/239 231/208/236 
f 234/228/239 228/231/233 124/230/127 117/229/120 
f 89/268/92 3/269/3 138/233/141 215/270/220 
f 215/270/220 138/233/141 139/193/142 212/271/217 
f 212/241/217 139/238/142 20/272/20 109/273/112 
s 3
f 226/242/231 223/243/228 222/182/227 225/179/230 
f 120/214/123 105/244/108 222/178/227 221/175/226 
f 219/209/224 227/210/232 223/243/228 226/242/231 
f 227/245/232 119/246/122 124/230/127 228/231/233 
s 1
f 235/247/240 236/250/241 237/249/242 238/248/243 
f 239/251/244 235/247/240 238/248/243 240/252/245 
f 131/253/134 239/251/244 240/252/245 132/254/135 
f 133/255/136 134/256/137 237/249/242 
f 134/257/137 238/248/243 237/249/242 
f 134/258/137 240/252/245 238/248/243 
f 240/252/245 134/259/137 132/254/135 
f 133/255/136 237/249/242 236/250/241 
f 133/255/246 236/250/241 136/261/246 
f 135/260/138 133/255/138 136/261/247 
s off
f 40/274/248 46/275/248 42/276/248 44/277/248 
f 172/278/249 166/279/249 169/280/249 168/281/249 
# 157 polygons - 101 triangles

