//Maya ASCII 2015 scene
//Name: compas.ma
//Last modified: Sun, May 17, 2015 01:59:36 PM
//Codeset: 1252
requires maya "2015";
currentUnit -l centimeter -a degree -t film;
fileInfo "application" "maya";
fileInfo "product" "Maya 2015";
fileInfo "version" "2015";
fileInfo "cutIdentifier" "201410051530-933320";
fileInfo "osv" "Microsoft Windows 8 Business Edition, 64-bit  (Build 9200)\n";
fileInfo "license" "student";
createNode transform -s -n "persp";
	setAttr ".v" no;
	setAttr ".t" -type "double3" 0.34052792017592715 -0.19344850091739607 3.065427629180506 ;
	setAttr ".r" -type "double3" 5.0616472703859143 724.9999999999693 7.4828997272913097e-017 ;
createNode camera -s -n "perspShape" -p "persp";
	setAttr -k off ".v" no;
	setAttr ".fl" 34.999999999999993;
	setAttr ".coi" 3.0474775673929098;
	setAttr ".imn" -type "string" "persp";
	setAttr ".den" -type "string" "persp_depth";
	setAttr ".man" -type "string" "persp_mask";
	setAttr ".hc" -type "string" "viewSet -p %camera";
createNode transform -s -n "top";
	setAttr ".v" no;
	setAttr ".t" -type "double3" 0 100.1 0 ;
	setAttr ".r" -type "double3" -89.999999999999986 0 0 ;
createNode camera -s -n "topShape" -p "top";
	setAttr -k off ".v" no;
	setAttr ".rnd" no;
	setAttr ".coi" 100.1;
	setAttr ".ow" 3.8440251415638427;
	setAttr ".imn" -type "string" "top";
	setAttr ".den" -type "string" "top_depth";
	setAttr ".man" -type "string" "top_mask";
	setAttr ".hc" -type "string" "viewSet -t %camera";
	setAttr ".o" yes;
createNode transform -s -n "front";
	setAttr ".v" no;
	setAttr ".t" -type "double3" 0.070816128380517096 -0.0027427002787590027 100.10004242103189 ;
createNode camera -s -n "frontShape" -p "front";
	setAttr -k off ".v" no;
	setAttr ".rnd" no;
	setAttr ".coi" 100.1;
	setAttr ".ow" 5.3821249552363044;
	setAttr ".imn" -type "string" "front";
	setAttr ".den" -type "string" "front_depth";
	setAttr ".man" -type "string" "front_mask";
	setAttr ".hc" -type "string" "viewSet -f %camera";
	setAttr ".o" yes;
createNode transform -s -n "side";
	setAttr ".v" no;
	setAttr ".t" -type "double3" 100.1 0.057900539664105452 -0.09696596401579112 ;
	setAttr ".r" -type "double3" 0 89.999999999999986 0 ;
createNode camera -s -n "sideShape" -p "side";
	setAttr -k off ".v" no;
	setAttr ".rnd" no;
	setAttr ".coi" 100.1;
	setAttr ".ow" 0.90269034126930692;
	setAttr ".imn" -type "string" "side";
	setAttr ".den" -type "string" "side_depth";
	setAttr ".man" -type "string" "side_mask";
	setAttr ".hc" -type "string" "viewSet -s %camera";
	setAttr ".o" yes;
createNode transform -n "pCube1";
	setAttr ".t" -type "double3" -1.9247893403694829 0 0 ;
	setAttr ".s" -type "double3" 1 1 0.18682032126915049 ;
createNode transform -n "polySurface2" -p "pCube1";
	setAttr ".t" -type "double3" -0.074867271402050406 0 -0.55637491437899034 ;
	setAttr ".rp" -type "double3" 1.99560546875 -0.0027427002787590027 -0.43739823997020721 ;
	setAttr ".sp" -type "double3" 1.99560546875 -0.0027427002787590027 -0.43739823997020721 ;
createNode transform -n "transform3" -p "|pCube1|polySurface2";
	setAttr ".v" no;
createNode mesh -n "polySurfaceShape2" -p "transform3";
	setAttr -k off ".v";
	setAttr ".io" yes;
	setAttr -s 2 ".iog[0].og";
	setAttr ".vir" yes;
	setAttr ".vif" yes;
	setAttr ".pv" -type "double2" 0.49999999243300408 0.4650108827627264 ;
	setAttr ".uvst[0].uvsn" -type "string" "map1";
	setAttr ".cuvs" -type "string" "map1";
	setAttr ".dcc" -type "string" "Ambient+Diffuse";
	setAttr ".covm[0]"  0 1 1;
	setAttr ".cdvm[0]"  0 1 1;
	setAttr ".dr" 1;
createNode transform -n "transform1" -p "pCube1";
	setAttr ".v" no;
createNode mesh -n "pCubeShape1" -p "transform1";
	setAttr -k off ".v";
	setAttr ".io" yes;
	setAttr -s 2 ".iog[0].og";
	setAttr ".vir" yes;
	setAttr ".vif" yes;
	setAttr -s 2 ".ciog[0].cog";
	setAttr ".pv" -type "double2" 0.50140474736690521 0.13074792921543121 ;
	setAttr ".uvst[0].uvsn" -type "string" "map1";
	setAttr ".cuvs" -type "string" "map1";
	setAttr ".dcc" -type "string" "Ambient+Diffuse";
	setAttr ".covm[0]"  0 1 1;
	setAttr ".cdvm[0]"  0 1 1;
	setAttr ".dr" 1;
createNode transform -n "pCylinder2";
	setAttr ".t" -type "double3" 0 0 -0.19642874638113494 ;
	setAttr ".r" -type "double3" 90.000000000000028 0 0 ;
	setAttr ".s" -type "double3" 0.63185991035512623 0.06079327205937652 0.63185991035512623 ;
createNode transform -n "transform2" -p "pCylinder2";
	setAttr ".v" no;
createNode mesh -n "pCylinderShape2" -p "transform2";
	setAttr -k off ".v";
	setAttr ".io" yes;
	setAttr -s 2 ".iog[0].og";
	setAttr ".vir" yes;
	setAttr ".vif" yes;
	setAttr ".pv" -type "double2" 0.5 0.5000000074505806 ;
	setAttr ".uvst[0].uvsn" -type "string" "map1";
	setAttr ".cuvs" -type "string" "map1";
	setAttr ".dcc" -type "string" "Ambient+Diffuse";
	setAttr ".covm[0]"  0 1 1;
	setAttr ".cdvm[0]"  0 1 1;
	setAttr -s 17 ".pt";
	setAttr ".pt[64]" -type "float3" -1.4901161e-008 0 -4.4703484e-008 ;
	setAttr ".pt[65]" -type "float3" -7.4505806e-009 0 0 ;
	setAttr ".pt[66]" -type "float3" 1.1175871e-008 0 2.9802322e-008 ;
	setAttr ".pt[67]" -type "float3" 0 0 -8.9406967e-008 ;
	setAttr ".pt[68]" -type "float3" 3.7252903e-009 0 -2.9802322e-008 ;
	setAttr ".pt[70]" -type "float3" 1.4901161e-008 0 -5.9604645e-008 ;
	setAttr ".pt[71]" -type "float3" 0 0 -4.2632564e-014 ;
	setAttr ".pt[72]" -type "float3" 1.4901161e-008 0 4.4703484e-008 ;
	setAttr ".pt[73]" -type "float3" 7.4505806e-009 0 2.9802322e-008 ;
	setAttr ".pt[74]" -type "float3" 3.7252903e-009 0 8.9406967e-008 ;
	setAttr ".pt[75]" -type "float3" 0 0 8.9406967e-008 ;
	setAttr ".pt[76]" -type "float3" 0 0 2.9802322e-008 ;
	setAttr ".pt[77]" -type "float3" 1.4901161e-008 0 5.9604645e-008 ;
	setAttr ".pt[78]" -type "float3" 0 0 2.9802322e-008 ;
	setAttr ".pt[79]" -type "float3" 0 0 -2.6645353e-015 ;
	setAttr ".dr" 1;
createNode transform -n "polySurface2";
createNode mesh -n "polySurface2Shape" -p "|polySurface2";
	setAttr -k off ".v";
	setAttr -s 4 ".iog[0].og";
	setAttr ".vir" yes;
	setAttr ".vif" yes;
	setAttr ".uvst[0].uvsn" -type "string" "map1";
	setAttr ".cuvs" -type "string" "map1";
	setAttr ".dcc" -type "string" "Ambient+Diffuse";
	setAttr ".covm[0]"  0 1 1;
	setAttr ".cdvm[0]"  0 1 1;
createNode lightLinker -s -n "lightLinker1";
	setAttr -s 4 ".lnk";
	setAttr -s 4 ".slnk";
createNode displayLayerManager -n "layerManager";
createNode displayLayer -n "defaultLayer";
createNode renderLayerManager -n "renderLayerManager";
createNode renderLayer -n "defaultRenderLayer";
	setAttr ".g" yes;
createNode polyCube -n "polyCube1";
	setAttr ".sw" 2;
	setAttr ".sh" 2;
	setAttr ".sd" 2;
	setAttr ".cuv" 4;
createNode polyDuplicateEdge -n "polyDuplicateEdge1";
	setAttr ".uopa" yes;
	setAttr ".ics" -type "componentList" 8 "e[17]" "e[20]" "e[23]" "e[26]" "e[29]" "e[32]" "e[35]" "e[38]";
	setAttr ".of" 0.9170302152633667;
createNode polyDuplicateEdge -n "polyDuplicateEdge2";
	setAttr ".uopa" yes;
	setAttr ".ics" -type "componentList" 8 "e[2:3]" "e[10:11]" "e[40:41]" "e[44:45]" "e[53]" "e[61]" "e[64]" "e[71]";
	setAttr ".of" 0.89748883247375488;
createNode deleteComponent -n "deleteComponent1";
	setAttr ".dc" -type "componentList" 9 "f[6:13]" "f[16]" "f[18]" "f[20]" "f[22]" "f[25:28]" "f[34:37]" "f[41:46]" "f[56:61]";
createNode polyExtrudeFace -n "polyExtrudeFace1";
	setAttr ".ics" -type "componentList" 2 "f[23:24]" "f[26:27]";
	setAttr ".ix" -type "matrix" 1 0 0 0 0 1 0 0 0 0 0.18682032126915049 0 0 0 0 1;
	setAttr ".ws" yes;
	setAttr ".t" -type "double3" 0 0 -0.047372729841541894 ;
	setAttr ".pvt" -type "float3" 0 0 0.046037443 ;
	setAttr ".rs" 64237;
	setAttr ".c[0]"  0 1 1;
	setAttr ".cbn" -type "double3" -0.45851510763168335 -0.44874441623687744 0.093410160634575246 ;
	setAttr ".cbx" -type "double3" 0.45851510763168335 0.44874441623687744 0.093410160634575246 ;
createNode polySplitRing -n "polySplitRing1";
	setAttr ".uopa" yes;
	setAttr ".ics" -type "componentList" 7 "e[35]" "e[37]" "e[39:40]" "e[53]" "e[57]" "e[78:79]" "e[83]";
	setAttr ".ix" -type "matrix" 1 0 0 0 0 1 0 0 0 0 0.18682032126915049 0 0 0 0 1;
	setAttr ".wt" 0.87610763311386108;
	setAttr ".dr" no;
	setAttr ".re" 79;
	setAttr ".sma" 29.999999999999996;
	setAttr ".p[0]"  0 0 1;
	setAttr ".fq" yes;
createNode polySplitRing -n "polySplitRing2";
	setAttr ".uopa" yes;
	setAttr ".ics" -type "componentList" 9 "e[1]" "e[4]" "e[6]" "e[8]" "e[51]" "e[59]" "e[70]" "e[73]" "e[87]";
	setAttr ".ix" -type "matrix" 1 0 0 0 0 1 0 0 0 0 0.18682032126915049 0 0 0 0 1;
	setAttr ".wt" 0.14840210974216461;
	setAttr ".re" 73;
	setAttr ".sma" 29.999999999999996;
	setAttr ".p[0]"  0 0 1;
	setAttr ".fq" yes;
createNode polySplitRing -n "polySplitRing3";
	setAttr ".uopa" yes;
	setAttr ".ics" -type "componentList" 9 "e[34]" "e[43:44]" "e[46:47]" "e[52]" "e[72]" "e[74]" "e[77]" "e[96]" "e[113]";
	setAttr ".ix" -type "matrix" 1 0 0 0 0 1 0 0 0 0 0.18682032126915049 0 0 0 0 1;
	setAttr ".wt" 0.63119500875473022;
	setAttr ".dr" no;
	setAttr ".re" 74;
	setAttr ".sma" 29.999999999999996;
	setAttr ".p[0]"  0 0 1;
	setAttr ".fq" yes;
createNode polySplitRing -n "polySplitRing4";
	setAttr ".uopa" yes;
	setAttr ".ics" -type "componentList" 10 "e[12:13]" "e[22]" "e[25]" "e[36]" "e[58]" "e[81]" "e[84]" "e[86]" "e[98]" "e[115]";
	setAttr ".ix" -type "matrix" 1 0 0 0 0 1 0 0 0 0 0.18682032126915049 0 0 0 0 1;
	setAttr ".wt" 0.47127637267112732;
	setAttr ".re" 81;
	setAttr ".sma" 29.999999999999996;
	setAttr ".p[0]"  0 0 1;
	setAttr ".fq" yes;
createNode polyExtrudeFace -n "polyExtrudeFace2";
	setAttr ".ics" -type "componentList" 3 "f[27]" "f[44]" "f[60:61]";
	setAttr ".ix" -type "matrix" 1 0 0 0 0 1 0 0 0 0 0.18682032126915049 0 0 0 0 1;
	setAttr ".ws" yes;
	setAttr ".t" -type "double3" 0 0 0.036698315894414163 ;
	setAttr ".pvt" -type "float3" 0.0056190435 -0.0027427003 0.082735747 ;
	setAttr ".rs" 58176;
	setAttr ".c[0]"  0 1 1;
	setAttr ".cbn" -type "double3" -0.056806523352861404 -0.21696804463863373 0.046037434820715678 ;
	setAttr ".cbx" -type "double3" 0.068044610321521759 0.21148264408111572 0.046037437604555399 ;
createNode polyTweak -n "polyTweak1";
	setAttr ".uopa" yes;
	setAttr -s 10 ".tk";
	setAttr ".tk[72]" -type "float3" 0 -0.051468864 0 ;
	setAttr ".tk[82]" -type "float3" -0.052876335 0 0 ;
	setAttr ".tk[84]" -type "float3" 0.040558912 0 0 ;
createNode polySplitRing -n "polySplitRing5";
	setAttr ".uopa" yes;
	setAttr ".ics" -type "componentList" 10 "e[35]" "e[37]" "e[39:40]" "e[57]" "e[78]" "e[81]" "e[89]" "e[91]" "e[132]" "e[153]";
	setAttr ".ix" -type "matrix" 1 0 0 0 0 1 0 0 0 0 0.18682032126915049 0 0 0 0 1;
	setAttr ".wt" 0.97798323631286621;
	setAttr ".dr" no;
	setAttr ".re" 78;
	setAttr ".sma" 29.999999999999996;
	setAttr ".p[0]"  0 0 1;
	setAttr ".fq" yes;
createNode polySplitRing -n "polySplitRing6";
	setAttr ".uopa" yes;
	setAttr ".ics" -type "componentList" 10 "e[51]" "e[70]" "e[102:103]" "e[109]" "e[111]" "e[113]" "e[115]" "e[117]" "e[127]" "e[147]";
	setAttr ".ix" -type "matrix" 1 0 0 0 0 1 0 0 0 0 0.18682032126915049 0 0 0 0 1;
	setAttr ".wt" 0.026257570832967758;
	setAttr ".re" 109;
	setAttr ".sma" 29.999999999999996;
	setAttr ".p[0]"  0 0 1;
	setAttr ".fq" yes;
createNode polySplitRing -n "polySplitRing7";
	setAttr ".uopa" yes;
	setAttr ".ics" -type "componentList" 11 "e[53]" "e[77]" "e[86:87]" "e[94]" "e[96]" "e[98]" "e[100]" "e[130]" "e[151]" "e[170:171]" "e[179]";
	setAttr ".ix" -type "matrix" 1 0 0 0 0 1 0 0 0 0 0.18682032126915049 0 0 0 0 1;
	setAttr ".wt" 0.13682860136032104;
	setAttr ".re" 170;
	setAttr ".sma" 29.999999999999996;
	setAttr ".p[0]"  0 0 1;
	setAttr ".fq" yes;
createNode polySplitRing -n "polySplitRing8";
	setAttr ".uopa" yes;
	setAttr ".ics" -type "componentList" 13 "e[1]" "e[4]" "e[6]" "e[8]" "e[59]" "e[85]" "e[105]" "e[107]" "e[128]" "e[149]" "e[161]" "e[165]" "e[174]";
	setAttr ".ix" -type "matrix" 1 0 0 0 0 1 0 0 0 0 0.18682032126915049 0 0 0 0 1;
	setAttr ".wt" 0.8960832953453064;
	setAttr ".dr" no;
	setAttr ".re" 161;
	setAttr ".sma" 29.999999999999996;
	setAttr ".p[0]"  0 0 1;
	setAttr ".fq" yes;
createNode polySplitRing -n "polySplitRing9";
	setAttr ".uopa" yes;
	setAttr ".ics" -type "componentList" 13 "e[43:44]" "e[46:47]" "e[52]" "e[73]" "e[76]" "e[93]" "e[110]" "e[122]" "e[124]" "e[188]" "e[209]" "e[230]" "e[255]";
	setAttr ".ix" -type "matrix" 1 0 0 0 0 1 0 0 0 0 0.18682032126915049 0 0 0 0 1;
	setAttr ".wt" 0.95032739639282227;
	setAttr ".dr" no;
	setAttr ".re" 73;
	setAttr ".sma" 29.999999999999996;
	setAttr ".p[0]"  0 0 1;
	setAttr ".fq" yes;
createNode polySplitRing -n "polySplitRing10";
	setAttr ".uopa" yes;
	setAttr ".ics" -type "componentList" 14 "e[58]" "e[84]" "e[139:140]" "e[146]" "e[148]" "e[150]" "e[152]" "e[154]" "e[156]" "e[158]" "e[194]" "e[215]" "e[240]" "e[265]";
	setAttr ".ix" -type "matrix" 1 0 0 0 0 1 0 0 0 0 0.18682032126915049 0 0 0 0 1;
	setAttr ".wt" 0.030713453888893127;
	setAttr ".re" 148;
	setAttr ".sma" 29.999999999999996;
	setAttr ".p[0]"  0 0 1;
	setAttr ".fq" yes;
createNode polyCylinder -n "polyCylinder2";
	setAttr ".sa" 16;
	setAttr ".sh" 2;
	setAttr ".sc" 2;
	setAttr ".cuv" 3;
createNode polyChipOff -n "polyChipOff1";
	setAttr ".ics" -type "componentList" 6 "f[27]" "f[44]" "f[60:61]" "f[76:83]" "f[108:111]" "f[120:123]";
	setAttr ".ix" -type "matrix" 1 0 0 0 0 1 0 0 0 0 0.18682032126915049 0 -1.9247893403694829 0 0 1;
	setAttr ".ws" yes;
	setAttr ".t" -type "double3" 1.989986402322748 0 -0.14610150969889008 ;
	setAttr ".pvt" -type "float3" 0.065196887 0 -0.14610164 ;
	setAttr ".rs" 60876;
	setAttr ".dup" no;
createNode polyTweak -n "polyTweak2";
	setAttr ".uopa" yes;
	setAttr -s 55 ".tk";
	setAttr ".tk[5]" -type "float3" 1.4901161e-008 -3.7252903e-009 0 ;
	setAttr ".tk[7]" -type "float3" -1.4901161e-008 -3.7252903e-009 0 ;
	setAttr ".tk[8]" -type "float3" 1.4901161e-008 -3.7252903e-009 0 ;
	setAttr ".tk[10]" -type "float3" -1.4901161e-008 -3.7252903e-009 0 ;
	setAttr ".tk[18]" -type "float3" -2.2351742e-008 -3.7252903e-009 0 ;
	setAttr ".tk[19]" -type "float3" -2.2351742e-008 -3.7252903e-009 0 ;
	setAttr ".tk[22]" -type "float3" 2.2351742e-008 -3.7252903e-009 0 ;
	setAttr ".tk[23]" -type "float3" 2.2351742e-008 -3.7252903e-009 0 ;
	setAttr ".tk[33]" -type "float3" 2.2351742e-008 -7.4505806e-009 0 ;
	setAttr ".tk[35]" -type "float3" -2.2351742e-008 -7.4505806e-009 0 ;
	setAttr ".tk[36]" -type "float3" -1.4901161e-008 -7.4505806e-009 0 ;
	setAttr ".tk[37]" -type "float3" -1.4901161e-008 -7.4505806e-009 0 ;
	setAttr ".tk[38]" -type "float3" 1.4901161e-008 -7.4505806e-009 0 ;
	setAttr ".tk[39]" -type "float3" 1.4901161e-008 -7.4505806e-009 0 ;
	setAttr ".tk[46]" -type "float3" 2.2351742e-008 -7.4505806e-009 0 ;
	setAttr ".tk[47]" -type "float3" -2.2351742e-008 -7.4505806e-009 0 ;
	setAttr ".tk[52]" -type "float3" 0 0 1.1920929e-007 ;
	setAttr ".tk[61]" -type "float3" 0 0 1.1920929e-007 ;
	setAttr ".tk[70]" -type "float3" 0 0 1.1920929e-007 ;
	setAttr ".tk[71]" -type "float3" 0 0 1.1920929e-007 ;
	setAttr ".tk[72]" -type "float3" 0 0 1.1920929e-007 ;
	setAttr ".tk[81]" -type "float3" -0.012310079 0 1.1920929e-007 ;
	setAttr ".tk[82]" -type "float3" 0.00050157268 0 1.1920929e-007 ;
	setAttr ".tk[83]" -type "float3" 0.014224865 0 1.1920929e-007 ;
	setAttr ".tk[88]" -type "float3" 0 0 1.1920929e-007 ;
	setAttr ".tk[89]" -type "float3" 0 0 1.1920929e-007 ;
	setAttr ".tk[90]" -type "float3" -0.012310079 0 1.1920929e-007 ;
	setAttr ".tk[91]" -type "float3" 0.00050157268 0 1.1920929e-007 ;
	setAttr ".tk[92]" -type "float3" 0 0 1.1920929e-007 ;
	setAttr ".tk[93]" -type "float3" 0.014224865 0 1.1920929e-007 ;
	setAttr ".tk[94]" -type "float3" 0 0 1.1920929e-007 ;
	setAttr ".tk[95]" -type "float3" 0 0 1.1920929e-007 ;
	setAttr ".tk[96]" -type "float3" 0 0 1.1920929e-007 ;
	setAttr ".tk[103]" -type "float3" 0.022449328 0 0 ;
	setAttr ".tk[114]" -type "float3" -0.022142647 0 0 ;
	setAttr ".tk[123]" -type "float3" 0 0 1.1920929e-007 ;
	setAttr ".tk[124]" -type "float3" 0 0 1.1920929e-007 ;
	setAttr ".tk[125]" -type "float3" 0 0 1.1920929e-007 ;
	setAttr ".tk[126]" -type "float3" 0.012347125 0 1.1920929e-007 ;
	setAttr ".tk[127]" -type "float3" 0.012347125 0 1.1920929e-007 ;
	setAttr ".tk[136]" -type "float3" 0 0 1.1920929e-007 ;
	setAttr ".tk[137]" -type "float3" 0 0 1.1920929e-007 ;
	setAttr ".tk[138]" -type "float3" 0 0 1.1920929e-007 ;
	setAttr ".tk[139]" -type "float3" -0.010978732 0 1.1920929e-007 ;
	setAttr ".tk[140]" -type "float3" -0.010978732 0 1.1920929e-007 ;
	setAttr ".tk[164]" -type "float3" -0.023478337 0 0 ;
	setAttr ".tk[165]" -type "float3" -0.013681774 0 0 ;
	setAttr ".tk[166]" -type "float3" -0.012207887 0 0 ;
	setAttr ".tk[167]" -type "float3" 0.00050157268 0 0 ;
	setAttr ".tk[168]" -type "float3" 0.013255328 0 0 ;
	setAttr ".tk[169]" -type "float3" 0.015277032 0 0 ;
	setAttr ".tk[170]" -type "float3" 0.023478337 0 0 ;
createNode polySeparate -n "polySeparate1";
	setAttr ".ic" 2;
createNode groupId -n "groupId1";
	setAttr ".ihi" 0;
createNode groupParts -n "groupParts1";
	setAttr ".ihi" 0;
	setAttr ".ic" -type "componentList" 1 "f[0:155]";
createNode groupId -n "groupId2";
	setAttr ".ihi" 0;
createNode polySplitRing -n "polySplitRing11";
	setAttr ".uopa" yes;
	setAttr ".ics" -type "componentList" 1 "e[128:143]";
	setAttr ".ix" -type "matrix" 1 0 0 0 0 -4.272724968082696e-017 0.09621321287056922 0
		 0 -1 -4.4408920985006262e-016 0 0 0 -0.19642874638113494 1;
	setAttr ".wt" 0.14232680201530457;
	setAttr ".dr" no;
	setAttr ".re" 132;
	setAttr ".sma" 29.999999999999996;
	setAttr ".p[0]"  0 0 1;
	setAttr ".fq" yes;
createNode polyExtrudeFace -n "polyExtrudeFace3";
	setAttr ".ics" -type "componentList" 1 "f[80:111]";
	setAttr ".ix" -type "matrix" 1 0 0 0 0 -4.272724968082696e-017 0.09621321287056922 0
		 0 -1 -4.4408920985006262e-016 0 0 0 -0.19642874638113494 1;
	setAttr ".ws" yes;
	setAttr ".t" -type "double3" 0 0 -0.10274640859500325 ;
	setAttr ".pvt" -type "float3" 0 -2.9802322e-008 -0.20296194 ;
	setAttr ".rs" 38225;
	setAttr ".c[0]"  0 1 1;
	setAttr ".cbn" -type "double3" -0.92883658409118652 -0.92883658409118652 -0.10021553351056614 ;
	setAttr ".cbx" -type "double3" 0.92883658409118652 0.92883652448654175 -0.10021553351056531 ;
createNode polyAutoProj -n "polyAutoProj1";
	setAttr ".uopa" yes;
	setAttr ".ics" -type "componentList" 1 "f[0:127]";
	setAttr ".ix" -type "matrix" 0.63185991035512623 0 0 0 0 -2.6997636153048408e-017 0.06079327205937652 0
		 0 -0.63185991035512623 -2.8060216832553941e-016 0 0 0 -0.19642874638113494 1;
	setAttr ".s" -type "double3" 1.2637198207102525 1.2637198207102525 1.2637198207102525 ;
	setAttr ".ps" 0.20000000298023224;
	setAttr ".dl" yes;
createNode blinn -n "blinn1";
createNode shadingEngine -n "blinn1SG";
	setAttr ".ihi" 0;
	setAttr -s 3 ".dsm";
	setAttr ".ro" yes;
	setAttr -s 3 ".gn";
createNode materialInfo -n "materialInfo1";
createNode file -n "file1";
	setAttr ".ag" 2.0069999694824219;
	setAttr ".ftn" -type "string" "C:/Users/Armando/Documents/6 semestre/objetos2//sourceimages/color2.tga";
	setAttr ".ft" 0;
createNode place2dTexture -n "place2dTexture1";
createNode blinn -n "blinn2";
	setAttr ".c" -type "float3" 1 0 0 ;
createNode shadingEngine -n "blinn2SG";
	setAttr ".ihi" 0;
	setAttr -s 3 ".dsm";
	setAttr ".ro" yes;
	setAttr -s 3 ".gn";
createNode materialInfo -n "materialInfo2";
createNode polySmoothFace -n "polySmoothFace1";
	setAttr ".ics" -type "componentList" 1 "f[*]";
	setAttr ".sdt" 2;
	setAttr ".suv" yes;
	setAttr ".ps" 0.10000000149011612;
	setAttr ".ro" 1;
	setAttr ".ma" yes;
	setAttr ".m08" yes;
createNode polySmoothFace -n "polySmoothFace2";
	setAttr ".ics" -type "componentList" 1 "f[*]";
	setAttr ".sdt" 2;
	setAttr ".suv" yes;
	setAttr ".ps" 0.10000000149011612;
	setAttr ".ro" 1;
	setAttr ".ma" yes;
	setAttr ".m08" yes;
createNode polyUnite -n "polyUnite1";
	setAttr -s 2 ".ip";
	setAttr -s 2 ".im";
createNode groupId -n "groupId3";
	setAttr ".ihi" 0;
createNode groupParts -n "groupParts2";
	setAttr ".ihi" 0;
	setAttr ".ic" -type "componentList" 1 "f[0:79]";
createNode groupId -n "groupId4";
	setAttr ".ihi" 0;
createNode groupId -n "groupId5";
	setAttr ".ihi" 0;
createNode groupParts -n "groupParts3";
	setAttr ".ihi" 0;
	setAttr ".ic" -type "componentList" 1 "f[0:479]";
createNode groupId -n "groupId6";
	setAttr ".ihi" 0;
createNode groupId -n "groupId7";
	setAttr ".ihi" 0;
createNode groupParts -n "groupParts4";
	setAttr ".ihi" 0;
	setAttr ".ic" -type "componentList" 1 "f[0:79]";
createNode groupId -n "groupId8";
	setAttr ".ihi" 0;
createNode groupParts -n "groupParts5";
	setAttr ".ihi" 0;
	setAttr ".ic" -type "componentList" 1 "f[80:559]";
createNode script -n "uiConfigurationScriptNode";
	setAttr ".b" -type "string" (
		"// Maya Mel UI Configuration File.\n//\n//  This script is machine generated.  Edit at your own risk.\n//\n//\n\nglobal string $gMainPane;\nif (`paneLayout -exists $gMainPane`) {\n\n\tglobal int $gUseScenePanelConfig;\n\tint    $useSceneConfig = $gUseScenePanelConfig;\n\tint    $menusOkayInPanels = `optionVar -q allowMenusInPanels`;\tint    $nVisPanes = `paneLayout -q -nvp $gMainPane`;\n\tint    $nPanes = 0;\n\tstring $editorName;\n\tstring $panelName;\n\tstring $itemFilterName;\n\tstring $panelConfig;\n\n\t//\n\t//  get current state of the UI\n\t//\n\tsceneUIReplacement -update $gMainPane;\n\n\t$panelName = `sceneUIReplacement -getNextPanel \"modelPanel\" (localizedPanelLabel(\"Top View\")) `;\n\tif (\"\" == $panelName) {\n\t\tif ($useSceneConfig) {\n\t\t\t$panelName = `modelPanel -unParent -l (localizedPanelLabel(\"Top View\")) -mbv $menusOkayInPanels `;\n\t\t\t$editorName = $panelName;\n            modelEditor -e \n                -camera \"top\" \n                -useInteractiveMode 0\n                -displayLights \"default\" \n                -displayAppearance \"smoothShaded\" \n"
		+ "                -activeOnly 0\n                -ignorePanZoom 0\n                -wireframeOnShaded 0\n                -headsUpDisplay 1\n                -selectionHiliteDisplay 1\n                -useDefaultMaterial 0\n                -bufferMode \"double\" \n                -twoSidedLighting 0\n                -backfaceCulling 0\n                -xray 0\n                -jointXray 0\n                -activeComponentsXray 0\n                -displayTextures 0\n                -smoothWireframe 0\n                -lineWidth 1\n                -textureAnisotropic 0\n                -textureHilight 1\n                -textureSampling 2\n                -textureDisplay \"modulate\" \n                -textureMaxSize 16384\n                -fogging 0\n                -fogSource \"fragment\" \n                -fogMode \"linear\" \n                -fogStart 0\n                -fogEnd 100\n                -fogDensity 0.1\n                -fogColor 0.5 0.5 0.5 1 \n                -maxConstantTransparency 1\n                -rendererName \"vp2Renderer\" \n                -objectFilterShowInHUD 1\n"
		+ "                -isFiltered 0\n                -colorResolution 256 256 \n                -bumpResolution 512 512 \n                -textureCompression 0\n                -transparencyAlgorithm \"frontAndBackCull\" \n                -transpInShadows 0\n                -cullingOverride \"none\" \n                -lowQualityLighting 0\n                -maximumNumHardwareLights 1\n                -occlusionCulling 0\n                -shadingModel 0\n                -useBaseRenderer 0\n                -useReducedRenderer 0\n                -smallObjectCulling 0\n                -smallObjectThreshold -1 \n                -interactiveDisableShadows 0\n                -interactiveBackFaceCull 0\n                -sortTransparent 1\n                -nurbsCurves 1\n                -nurbsSurfaces 1\n                -polymeshes 1\n                -subdivSurfaces 1\n                -planes 1\n                -lights 1\n                -cameras 1\n                -controlVertices 1\n                -hulls 1\n                -grid 1\n                -imagePlane 1\n"
		+ "                -joints 1\n                -ikHandles 1\n                -deformers 1\n                -dynamics 1\n                -particleInstancers 1\n                -fluids 1\n                -hairSystems 1\n                -follicles 1\n                -nCloths 1\n                -nParticles 1\n                -nRigids 1\n                -dynamicConstraints 1\n                -locators 1\n                -manipulators 1\n                -pluginShapes 1\n                -dimensions 1\n                -handles 1\n                -pivots 1\n                -textures 1\n                -strokes 1\n                -motionTrails 1\n                -clipGhosts 1\n                -greasePencils 1\n                -shadows 0\n                $editorName;\n            modelEditor -e -viewSelected 0 $editorName;\n            modelEditor -e \n                -pluginObjects \"gpuCacheDisplayFilter\" 1 \n                $editorName;\n\t\t}\n\t} else {\n\t\t$label = `panel -q -label $panelName`;\n\t\tmodelPanel -edit -l (localizedPanelLabel(\"Top View\")) -mbv $menusOkayInPanels  $panelName;\n"
		+ "\t\t$editorName = $panelName;\n        modelEditor -e \n            -camera \"top\" \n            -useInteractiveMode 0\n            -displayLights \"default\" \n            -displayAppearance \"smoothShaded\" \n            -activeOnly 0\n            -ignorePanZoom 0\n            -wireframeOnShaded 0\n            -headsUpDisplay 1\n            -selectionHiliteDisplay 1\n            -useDefaultMaterial 0\n            -bufferMode \"double\" \n            -twoSidedLighting 0\n            -backfaceCulling 0\n            -xray 0\n            -jointXray 0\n            -activeComponentsXray 0\n            -displayTextures 0\n            -smoothWireframe 0\n            -lineWidth 1\n            -textureAnisotropic 0\n            -textureHilight 1\n            -textureSampling 2\n            -textureDisplay \"modulate\" \n            -textureMaxSize 16384\n            -fogging 0\n            -fogSource \"fragment\" \n            -fogMode \"linear\" \n            -fogStart 0\n            -fogEnd 100\n            -fogDensity 0.1\n            -fogColor 0.5 0.5 0.5 1 \n            -maxConstantTransparency 1\n"
		+ "            -rendererName \"vp2Renderer\" \n            -objectFilterShowInHUD 1\n            -isFiltered 0\n            -colorResolution 256 256 \n            -bumpResolution 512 512 \n            -textureCompression 0\n            -transparencyAlgorithm \"frontAndBackCull\" \n            -transpInShadows 0\n            -cullingOverride \"none\" \n            -lowQualityLighting 0\n            -maximumNumHardwareLights 1\n            -occlusionCulling 0\n            -shadingModel 0\n            -useBaseRenderer 0\n            -useReducedRenderer 0\n            -smallObjectCulling 0\n            -smallObjectThreshold -1 \n            -interactiveDisableShadows 0\n            -interactiveBackFaceCull 0\n            -sortTransparent 1\n            -nurbsCurves 1\n            -nurbsSurfaces 1\n            -polymeshes 1\n            -subdivSurfaces 1\n            -planes 1\n            -lights 1\n            -cameras 1\n            -controlVertices 1\n            -hulls 1\n            -grid 1\n            -imagePlane 1\n            -joints 1\n            -ikHandles 1\n"
		+ "            -deformers 1\n            -dynamics 1\n            -particleInstancers 1\n            -fluids 1\n            -hairSystems 1\n            -follicles 1\n            -nCloths 1\n            -nParticles 1\n            -nRigids 1\n            -dynamicConstraints 1\n            -locators 1\n            -manipulators 1\n            -pluginShapes 1\n            -dimensions 1\n            -handles 1\n            -pivots 1\n            -textures 1\n            -strokes 1\n            -motionTrails 1\n            -clipGhosts 1\n            -greasePencils 1\n            -shadows 0\n            $editorName;\n        modelEditor -e -viewSelected 0 $editorName;\n        modelEditor -e \n            -pluginObjects \"gpuCacheDisplayFilter\" 1 \n            $editorName;\n\t\tif (!$useSceneConfig) {\n\t\t\tpanel -e -l $label $panelName;\n\t\t}\n\t}\n\n\n\t$panelName = `sceneUIReplacement -getNextPanel \"modelPanel\" (localizedPanelLabel(\"Side View\")) `;\n\tif (\"\" == $panelName) {\n\t\tif ($useSceneConfig) {\n\t\t\t$panelName = `modelPanel -unParent -l (localizedPanelLabel(\"Side View\")) -mbv $menusOkayInPanels `;\n"
		+ "\t\t\t$editorName = $panelName;\n            modelEditor -e \n                -camera \"side\" \n                -useInteractiveMode 0\n                -displayLights \"default\" \n                -displayAppearance \"smoothShaded\" \n                -activeOnly 0\n                -ignorePanZoom 0\n                -wireframeOnShaded 0\n                -headsUpDisplay 1\n                -selectionHiliteDisplay 1\n                -useDefaultMaterial 0\n                -bufferMode \"double\" \n                -twoSidedLighting 0\n                -backfaceCulling 0\n                -xray 1\n                -jointXray 0\n                -activeComponentsXray 0\n                -displayTextures 0\n                -smoothWireframe 0\n                -lineWidth 1\n                -textureAnisotropic 0\n                -textureHilight 1\n                -textureSampling 2\n                -textureDisplay \"modulate\" \n                -textureMaxSize 16384\n                -fogging 0\n                -fogSource \"fragment\" \n                -fogMode \"linear\" \n"
		+ "                -fogStart 0\n                -fogEnd 100\n                -fogDensity 0.1\n                -fogColor 0.5 0.5 0.5 1 \n                -maxConstantTransparency 1\n                -rendererName \"vp2Renderer\" \n                -objectFilterShowInHUD 1\n                -isFiltered 0\n                -colorResolution 256 256 \n                -bumpResolution 512 512 \n                -textureCompression 0\n                -transparencyAlgorithm \"frontAndBackCull\" \n                -transpInShadows 0\n                -cullingOverride \"none\" \n                -lowQualityLighting 0\n                -maximumNumHardwareLights 1\n                -occlusionCulling 0\n                -shadingModel 0\n                -useBaseRenderer 0\n                -useReducedRenderer 0\n                -smallObjectCulling 0\n                -smallObjectThreshold -1 \n                -interactiveDisableShadows 0\n                -interactiveBackFaceCull 0\n                -sortTransparent 1\n                -nurbsCurves 1\n                -nurbsSurfaces 1\n"
		+ "                -polymeshes 1\n                -subdivSurfaces 1\n                -planes 1\n                -lights 1\n                -cameras 1\n                -controlVertices 1\n                -hulls 1\n                -grid 1\n                -imagePlane 1\n                -joints 1\n                -ikHandles 1\n                -deformers 1\n                -dynamics 1\n                -particleInstancers 1\n                -fluids 1\n                -hairSystems 1\n                -follicles 1\n                -nCloths 1\n                -nParticles 1\n                -nRigids 1\n                -dynamicConstraints 1\n                -locators 1\n                -manipulators 1\n                -pluginShapes 1\n                -dimensions 1\n                -handles 1\n                -pivots 1\n                -textures 1\n                -strokes 1\n                -motionTrails 1\n                -clipGhosts 1\n                -greasePencils 1\n                -shadows 0\n                $editorName;\n            modelEditor -e -viewSelected 0 $editorName;\n"
		+ "            modelEditor -e \n                -pluginObjects \"gpuCacheDisplayFilter\" 1 \n                $editorName;\n\t\t}\n\t} else {\n\t\t$label = `panel -q -label $panelName`;\n\t\tmodelPanel -edit -l (localizedPanelLabel(\"Side View\")) -mbv $menusOkayInPanels  $panelName;\n\t\t$editorName = $panelName;\n        modelEditor -e \n            -camera \"side\" \n            -useInteractiveMode 0\n            -displayLights \"default\" \n            -displayAppearance \"smoothShaded\" \n            -activeOnly 0\n            -ignorePanZoom 0\n            -wireframeOnShaded 0\n            -headsUpDisplay 1\n            -selectionHiliteDisplay 1\n            -useDefaultMaterial 0\n            -bufferMode \"double\" \n            -twoSidedLighting 0\n            -backfaceCulling 0\n            -xray 1\n            -jointXray 0\n            -activeComponentsXray 0\n            -displayTextures 0\n            -smoothWireframe 0\n            -lineWidth 1\n            -textureAnisotropic 0\n            -textureHilight 1\n            -textureSampling 2\n            -textureDisplay \"modulate\" \n"
		+ "            -textureMaxSize 16384\n            -fogging 0\n            -fogSource \"fragment\" \n            -fogMode \"linear\" \n            -fogStart 0\n            -fogEnd 100\n            -fogDensity 0.1\n            -fogColor 0.5 0.5 0.5 1 \n            -maxConstantTransparency 1\n            -rendererName \"vp2Renderer\" \n            -objectFilterShowInHUD 1\n            -isFiltered 0\n            -colorResolution 256 256 \n            -bumpResolution 512 512 \n            -textureCompression 0\n            -transparencyAlgorithm \"frontAndBackCull\" \n            -transpInShadows 0\n            -cullingOverride \"none\" \n            -lowQualityLighting 0\n            -maximumNumHardwareLights 1\n            -occlusionCulling 0\n            -shadingModel 0\n            -useBaseRenderer 0\n            -useReducedRenderer 0\n            -smallObjectCulling 0\n            -smallObjectThreshold -1 \n            -interactiveDisableShadows 0\n            -interactiveBackFaceCull 0\n            -sortTransparent 1\n            -nurbsCurves 1\n            -nurbsSurfaces 1\n"
		+ "            -polymeshes 1\n            -subdivSurfaces 1\n            -planes 1\n            -lights 1\n            -cameras 1\n            -controlVertices 1\n            -hulls 1\n            -grid 1\n            -imagePlane 1\n            -joints 1\n            -ikHandles 1\n            -deformers 1\n            -dynamics 1\n            -particleInstancers 1\n            -fluids 1\n            -hairSystems 1\n            -follicles 1\n            -nCloths 1\n            -nParticles 1\n            -nRigids 1\n            -dynamicConstraints 1\n            -locators 1\n            -manipulators 1\n            -pluginShapes 1\n            -dimensions 1\n            -handles 1\n            -pivots 1\n            -textures 1\n            -strokes 1\n            -motionTrails 1\n            -clipGhosts 1\n            -greasePencils 1\n            -shadows 0\n            $editorName;\n        modelEditor -e -viewSelected 0 $editorName;\n        modelEditor -e \n            -pluginObjects \"gpuCacheDisplayFilter\" 1 \n            $editorName;\n\t\tif (!$useSceneConfig) {\n"
		+ "\t\t\tpanel -e -l $label $panelName;\n\t\t}\n\t}\n\n\n\t$panelName = `sceneUIReplacement -getNextPanel \"modelPanel\" (localizedPanelLabel(\"Front View\")) `;\n\tif (\"\" == $panelName) {\n\t\tif ($useSceneConfig) {\n\t\t\t$panelName = `modelPanel -unParent -l (localizedPanelLabel(\"Front View\")) -mbv $menusOkayInPanels `;\n\t\t\t$editorName = $panelName;\n            modelEditor -e \n                -camera \"front\" \n                -useInteractiveMode 0\n                -displayLights \"default\" \n                -displayAppearance \"smoothShaded\" \n                -activeOnly 0\n                -ignorePanZoom 0\n                -wireframeOnShaded 0\n                -headsUpDisplay 1\n                -selectionHiliteDisplay 1\n                -useDefaultMaterial 0\n                -bufferMode \"double\" \n                -twoSidedLighting 0\n                -backfaceCulling 0\n                -xray 0\n                -jointXray 0\n                -activeComponentsXray 0\n                -displayTextures 0\n                -smoothWireframe 0\n                -lineWidth 1\n"
		+ "                -textureAnisotropic 0\n                -textureHilight 1\n                -textureSampling 2\n                -textureDisplay \"modulate\" \n                -textureMaxSize 16384\n                -fogging 0\n                -fogSource \"fragment\" \n                -fogMode \"linear\" \n                -fogStart 0\n                -fogEnd 100\n                -fogDensity 0.1\n                -fogColor 0.5 0.5 0.5 1 \n                -maxConstantTransparency 1\n                -rendererName \"vp2Renderer\" \n                -objectFilterShowInHUD 1\n                -isFiltered 0\n                -colorResolution 256 256 \n                -bumpResolution 512 512 \n                -textureCompression 0\n                -transparencyAlgorithm \"frontAndBackCull\" \n                -transpInShadows 0\n                -cullingOverride \"none\" \n                -lowQualityLighting 0\n                -maximumNumHardwareLights 1\n                -occlusionCulling 0\n                -shadingModel 0\n                -useBaseRenderer 0\n                -useReducedRenderer 0\n"
		+ "                -smallObjectCulling 0\n                -smallObjectThreshold -1 \n                -interactiveDisableShadows 0\n                -interactiveBackFaceCull 0\n                -sortTransparent 1\n                -nurbsCurves 1\n                -nurbsSurfaces 1\n                -polymeshes 1\n                -subdivSurfaces 1\n                -planes 1\n                -lights 1\n                -cameras 1\n                -controlVertices 1\n                -hulls 1\n                -grid 1\n                -imagePlane 1\n                -joints 1\n                -ikHandles 1\n                -deformers 1\n                -dynamics 1\n                -particleInstancers 1\n                -fluids 1\n                -hairSystems 1\n                -follicles 1\n                -nCloths 1\n                -nParticles 1\n                -nRigids 1\n                -dynamicConstraints 1\n                -locators 1\n                -manipulators 1\n                -pluginShapes 1\n                -dimensions 1\n                -handles 1\n"
		+ "                -pivots 1\n                -textures 1\n                -strokes 1\n                -motionTrails 1\n                -clipGhosts 1\n                -greasePencils 1\n                -shadows 0\n                $editorName;\n            modelEditor -e -viewSelected 0 $editorName;\n            modelEditor -e \n                -pluginObjects \"gpuCacheDisplayFilter\" 1 \n                $editorName;\n\t\t}\n\t} else {\n\t\t$label = `panel -q -label $panelName`;\n\t\tmodelPanel -edit -l (localizedPanelLabel(\"Front View\")) -mbv $menusOkayInPanels  $panelName;\n\t\t$editorName = $panelName;\n        modelEditor -e \n            -camera \"front\" \n            -useInteractiveMode 0\n            -displayLights \"default\" \n            -displayAppearance \"smoothShaded\" \n            -activeOnly 0\n            -ignorePanZoom 0\n            -wireframeOnShaded 0\n            -headsUpDisplay 1\n            -selectionHiliteDisplay 1\n            -useDefaultMaterial 0\n            -bufferMode \"double\" \n            -twoSidedLighting 0\n            -backfaceCulling 0\n"
		+ "            -xray 0\n            -jointXray 0\n            -activeComponentsXray 0\n            -displayTextures 0\n            -smoothWireframe 0\n            -lineWidth 1\n            -textureAnisotropic 0\n            -textureHilight 1\n            -textureSampling 2\n            -textureDisplay \"modulate\" \n            -textureMaxSize 16384\n            -fogging 0\n            -fogSource \"fragment\" \n            -fogMode \"linear\" \n            -fogStart 0\n            -fogEnd 100\n            -fogDensity 0.1\n            -fogColor 0.5 0.5 0.5 1 \n            -maxConstantTransparency 1\n            -rendererName \"vp2Renderer\" \n            -objectFilterShowInHUD 1\n            -isFiltered 0\n            -colorResolution 256 256 \n            -bumpResolution 512 512 \n            -textureCompression 0\n            -transparencyAlgorithm \"frontAndBackCull\" \n            -transpInShadows 0\n            -cullingOverride \"none\" \n            -lowQualityLighting 0\n            -maximumNumHardwareLights 1\n            -occlusionCulling 0\n            -shadingModel 0\n"
		+ "            -useBaseRenderer 0\n            -useReducedRenderer 0\n            -smallObjectCulling 0\n            -smallObjectThreshold -1 \n            -interactiveDisableShadows 0\n            -interactiveBackFaceCull 0\n            -sortTransparent 1\n            -nurbsCurves 1\n            -nurbsSurfaces 1\n            -polymeshes 1\n            -subdivSurfaces 1\n            -planes 1\n            -lights 1\n            -cameras 1\n            -controlVertices 1\n            -hulls 1\n            -grid 1\n            -imagePlane 1\n            -joints 1\n            -ikHandles 1\n            -deformers 1\n            -dynamics 1\n            -particleInstancers 1\n            -fluids 1\n            -hairSystems 1\n            -follicles 1\n            -nCloths 1\n            -nParticles 1\n            -nRigids 1\n            -dynamicConstraints 1\n            -locators 1\n            -manipulators 1\n            -pluginShapes 1\n            -dimensions 1\n            -handles 1\n            -pivots 1\n            -textures 1\n            -strokes 1\n"
		+ "            -motionTrails 1\n            -clipGhosts 1\n            -greasePencils 1\n            -shadows 0\n            $editorName;\n        modelEditor -e -viewSelected 0 $editorName;\n        modelEditor -e \n            -pluginObjects \"gpuCacheDisplayFilter\" 1 \n            $editorName;\n\t\tif (!$useSceneConfig) {\n\t\t\tpanel -e -l $label $panelName;\n\t\t}\n\t}\n\n\n\t$panelName = `sceneUIReplacement -getNextPanel \"modelPanel\" (localizedPanelLabel(\"Persp View\")) `;\n\tif (\"\" == $panelName) {\n\t\tif ($useSceneConfig) {\n\t\t\t$panelName = `modelPanel -unParent -l (localizedPanelLabel(\"Persp View\")) -mbv $menusOkayInPanels `;\n\t\t\t$editorName = $panelName;\n            modelEditor -e \n                -camera \"persp\" \n                -useInteractiveMode 0\n                -displayLights \"default\" \n                -displayAppearance \"smoothShaded\" \n                -activeOnly 0\n                -ignorePanZoom 0\n                -wireframeOnShaded 0\n                -headsUpDisplay 1\n                -selectionHiliteDisplay 1\n                -useDefaultMaterial 0\n"
		+ "                -bufferMode \"double\" \n                -twoSidedLighting 0\n                -backfaceCulling 0\n                -xray 0\n                -jointXray 0\n                -activeComponentsXray 0\n                -displayTextures 1\n                -smoothWireframe 0\n                -lineWidth 1\n                -textureAnisotropic 0\n                -textureHilight 1\n                -textureSampling 2\n                -textureDisplay \"modulate\" \n                -textureMaxSize 16384\n                -fogging 0\n                -fogSource \"fragment\" \n                -fogMode \"linear\" \n                -fogStart 0\n                -fogEnd 100\n                -fogDensity 0.1\n                -fogColor 0.5 0.5 0.5 1 \n                -maxConstantTransparency 1\n                -rendererName \"vp2Renderer\" \n                -objectFilterShowInHUD 1\n                -isFiltered 0\n                -colorResolution 256 256 \n                -bumpResolution 512 512 \n                -textureCompression 0\n                -transparencyAlgorithm \"frontAndBackCull\" \n"
		+ "                -transpInShadows 0\n                -cullingOverride \"none\" \n                -lowQualityLighting 0\n                -maximumNumHardwareLights 1\n                -occlusionCulling 0\n                -shadingModel 0\n                -useBaseRenderer 0\n                -useReducedRenderer 0\n                -smallObjectCulling 0\n                -smallObjectThreshold -1 \n                -interactiveDisableShadows 0\n                -interactiveBackFaceCull 0\n                -sortTransparent 1\n                -nurbsCurves 1\n                -nurbsSurfaces 1\n                -polymeshes 1\n                -subdivSurfaces 1\n                -planes 1\n                -lights 1\n                -cameras 1\n                -controlVertices 1\n                -hulls 1\n                -grid 1\n                -imagePlane 1\n                -joints 1\n                -ikHandles 1\n                -deformers 1\n                -dynamics 1\n                -particleInstancers 1\n                -fluids 1\n                -hairSystems 1\n"
		+ "                -follicles 1\n                -nCloths 1\n                -nParticles 1\n                -nRigids 1\n                -dynamicConstraints 1\n                -locators 1\n                -manipulators 1\n                -pluginShapes 1\n                -dimensions 1\n                -handles 1\n                -pivots 1\n                -textures 1\n                -strokes 1\n                -motionTrails 1\n                -clipGhosts 1\n                -greasePencils 1\n                -shadows 0\n                $editorName;\n            modelEditor -e -viewSelected 0 $editorName;\n            modelEditor -e \n                -pluginObjects \"gpuCacheDisplayFilter\" 1 \n                $editorName;\n\t\t}\n\t} else {\n\t\t$label = `panel -q -label $panelName`;\n\t\tmodelPanel -edit -l (localizedPanelLabel(\"Persp View\")) -mbv $menusOkayInPanels  $panelName;\n\t\t$editorName = $panelName;\n        modelEditor -e \n            -camera \"persp\" \n            -useInteractiveMode 0\n            -displayLights \"default\" \n            -displayAppearance \"smoothShaded\" \n"
		+ "            -activeOnly 0\n            -ignorePanZoom 0\n            -wireframeOnShaded 0\n            -headsUpDisplay 1\n            -selectionHiliteDisplay 1\n            -useDefaultMaterial 0\n            -bufferMode \"double\" \n            -twoSidedLighting 0\n            -backfaceCulling 0\n            -xray 0\n            -jointXray 0\n            -activeComponentsXray 0\n            -displayTextures 1\n            -smoothWireframe 0\n            -lineWidth 1\n            -textureAnisotropic 0\n            -textureHilight 1\n            -textureSampling 2\n            -textureDisplay \"modulate\" \n            -textureMaxSize 16384\n            -fogging 0\n            -fogSource \"fragment\" \n            -fogMode \"linear\" \n            -fogStart 0\n            -fogEnd 100\n            -fogDensity 0.1\n            -fogColor 0.5 0.5 0.5 1 \n            -maxConstantTransparency 1\n            -rendererName \"vp2Renderer\" \n            -objectFilterShowInHUD 1\n            -isFiltered 0\n            -colorResolution 256 256 \n            -bumpResolution 512 512 \n"
		+ "            -textureCompression 0\n            -transparencyAlgorithm \"frontAndBackCull\" \n            -transpInShadows 0\n            -cullingOverride \"none\" \n            -lowQualityLighting 0\n            -maximumNumHardwareLights 1\n            -occlusionCulling 0\n            -shadingModel 0\n            -useBaseRenderer 0\n            -useReducedRenderer 0\n            -smallObjectCulling 0\n            -smallObjectThreshold -1 \n            -interactiveDisableShadows 0\n            -interactiveBackFaceCull 0\n            -sortTransparent 1\n            -nurbsCurves 1\n            -nurbsSurfaces 1\n            -polymeshes 1\n            -subdivSurfaces 1\n            -planes 1\n            -lights 1\n            -cameras 1\n            -controlVertices 1\n            -hulls 1\n            -grid 1\n            -imagePlane 1\n            -joints 1\n            -ikHandles 1\n            -deformers 1\n            -dynamics 1\n            -particleInstancers 1\n            -fluids 1\n            -hairSystems 1\n            -follicles 1\n            -nCloths 1\n"
		+ "            -nParticles 1\n            -nRigids 1\n            -dynamicConstraints 1\n            -locators 1\n            -manipulators 1\n            -pluginShapes 1\n            -dimensions 1\n            -handles 1\n            -pivots 1\n            -textures 1\n            -strokes 1\n            -motionTrails 1\n            -clipGhosts 1\n            -greasePencils 1\n            -shadows 0\n            $editorName;\n        modelEditor -e -viewSelected 0 $editorName;\n        modelEditor -e \n            -pluginObjects \"gpuCacheDisplayFilter\" 1 \n            $editorName;\n\t\tif (!$useSceneConfig) {\n\t\t\tpanel -e -l $label $panelName;\n\t\t}\n\t}\n\n\n\t$panelName = `sceneUIReplacement -getNextPanel \"outlinerPanel\" (localizedPanelLabel(\"Outliner\")) `;\n\tif (\"\" == $panelName) {\n\t\tif ($useSceneConfig) {\n\t\t\t$panelName = `outlinerPanel -unParent -l (localizedPanelLabel(\"Outliner\")) -mbv $menusOkayInPanels `;\n\t\t\t$editorName = $panelName;\n            outlinerEditor -e \n                -docTag \"isolOutln_fromSeln\" \n                -showShapes 0\n"
		+ "                -showReferenceNodes 0\n                -showReferenceMembers 1\n                -showAttributes 0\n                -showConnected 0\n                -showAnimCurvesOnly 0\n                -showMuteInfo 0\n                -organizeByLayer 1\n                -showAnimLayerWeight 1\n                -autoExpandLayers 1\n                -autoExpand 0\n                -showDagOnly 1\n                -showAssets 1\n                -showContainedOnly 1\n                -showPublishedAsConnected 0\n                -showContainerContents 1\n                -ignoreDagHierarchy 0\n                -expandConnections 0\n                -showUpstreamCurves 1\n                -showUnitlessCurves 1\n                -showCompounds 1\n                -showLeafs 1\n                -showNumericAttrsOnly 0\n                -highlightActive 1\n                -autoSelectNewObjects 0\n                -doNotSelectNewObjects 0\n                -dropIsParent 1\n                -transmitFilters 0\n                -setFilter \"defaultSetFilter\" \n                -showSetMembers 1\n"
		+ "                -allowMultiSelection 1\n                -alwaysToggleSelect 0\n                -directSelect 0\n                -displayMode \"DAG\" \n                -expandObjects 0\n                -setsIgnoreFilters 1\n                -containersIgnoreFilters 0\n                -editAttrName 0\n                -showAttrValues 0\n                -highlightSecondary 0\n                -showUVAttrsOnly 0\n                -showTextureNodesOnly 0\n                -attrAlphaOrder \"default\" \n                -animLayerFilterOptions \"allAffecting\" \n                -sortOrder \"none\" \n                -longNames 0\n                -niceNames 1\n                -showNamespace 1\n                -showPinIcons 0\n                -mapMotionTrails 0\n                -ignoreHiddenAttribute 0\n                $editorName;\n\t\t}\n\t} else {\n\t\t$label = `panel -q -label $panelName`;\n\t\toutlinerPanel -edit -l (localizedPanelLabel(\"Outliner\")) -mbv $menusOkayInPanels  $panelName;\n\t\t$editorName = $panelName;\n        outlinerEditor -e \n            -docTag \"isolOutln_fromSeln\" \n"
		+ "            -showShapes 0\n            -showReferenceNodes 0\n            -showReferenceMembers 1\n            -showAttributes 0\n            -showConnected 0\n            -showAnimCurvesOnly 0\n            -showMuteInfo 0\n            -organizeByLayer 1\n            -showAnimLayerWeight 1\n            -autoExpandLayers 1\n            -autoExpand 0\n            -showDagOnly 1\n            -showAssets 1\n            -showContainedOnly 1\n            -showPublishedAsConnected 0\n            -showContainerContents 1\n            -ignoreDagHierarchy 0\n            -expandConnections 0\n            -showUpstreamCurves 1\n            -showUnitlessCurves 1\n            -showCompounds 1\n            -showLeafs 1\n            -showNumericAttrsOnly 0\n            -highlightActive 1\n            -autoSelectNewObjects 0\n            -doNotSelectNewObjects 0\n            -dropIsParent 1\n            -transmitFilters 0\n            -setFilter \"defaultSetFilter\" \n            -showSetMembers 1\n            -allowMultiSelection 1\n            -alwaysToggleSelect 0\n"
		+ "            -directSelect 0\n            -displayMode \"DAG\" \n            -expandObjects 0\n            -setsIgnoreFilters 1\n            -containersIgnoreFilters 0\n            -editAttrName 0\n            -showAttrValues 0\n            -highlightSecondary 0\n            -showUVAttrsOnly 0\n            -showTextureNodesOnly 0\n            -attrAlphaOrder \"default\" \n            -animLayerFilterOptions \"allAffecting\" \n            -sortOrder \"none\" \n            -longNames 0\n            -niceNames 1\n            -showNamespace 1\n            -showPinIcons 0\n            -mapMotionTrails 0\n            -ignoreHiddenAttribute 0\n            $editorName;\n\t\tif (!$useSceneConfig) {\n\t\t\tpanel -e -l $label $panelName;\n\t\t}\n\t}\n\n\n\t$panelName = `sceneUIReplacement -getNextScriptedPanel \"graphEditor\" (localizedPanelLabel(\"Graph Editor\")) `;\n\tif (\"\" == $panelName) {\n\t\tif ($useSceneConfig) {\n\t\t\t$panelName = `scriptedPanel -unParent  -type \"graphEditor\" -l (localizedPanelLabel(\"Graph Editor\")) -mbv $menusOkayInPanels `;\n\n\t\t\t$editorName = ($panelName+\"OutlineEd\");\n"
		+ "            outlinerEditor -e \n                -showShapes 1\n                -showReferenceNodes 0\n                -showReferenceMembers 0\n                -showAttributes 1\n                -showConnected 1\n                -showAnimCurvesOnly 1\n                -showMuteInfo 0\n                -organizeByLayer 1\n                -showAnimLayerWeight 1\n                -autoExpandLayers 1\n                -autoExpand 1\n                -showDagOnly 0\n                -showAssets 1\n                -showContainedOnly 0\n                -showPublishedAsConnected 0\n                -showContainerContents 0\n                -ignoreDagHierarchy 0\n                -expandConnections 1\n                -showUpstreamCurves 1\n                -showUnitlessCurves 1\n                -showCompounds 0\n                -showLeafs 1\n                -showNumericAttrsOnly 1\n                -highlightActive 0\n                -autoSelectNewObjects 1\n                -doNotSelectNewObjects 0\n                -dropIsParent 1\n                -transmitFilters 1\n"
		+ "                -setFilter \"0\" \n                -showSetMembers 0\n                -allowMultiSelection 1\n                -alwaysToggleSelect 0\n                -directSelect 0\n                -displayMode \"DAG\" \n                -expandObjects 0\n                -setsIgnoreFilters 1\n                -containersIgnoreFilters 0\n                -editAttrName 0\n                -showAttrValues 0\n                -highlightSecondary 0\n                -showUVAttrsOnly 0\n                -showTextureNodesOnly 0\n                -attrAlphaOrder \"default\" \n                -animLayerFilterOptions \"allAffecting\" \n                -sortOrder \"none\" \n                -longNames 0\n                -niceNames 1\n                -showNamespace 1\n                -showPinIcons 1\n                -mapMotionTrails 1\n                -ignoreHiddenAttribute 0\n                $editorName;\n\n\t\t\t$editorName = ($panelName+\"GraphEd\");\n            animCurveEditor -e \n                -displayKeys 1\n                -displayTangents 0\n                -displayActiveKeys 0\n"
		+ "                -displayActiveKeyTangents 1\n                -displayInfinities 0\n                -autoFit 0\n                -snapTime \"integer\" \n                -snapValue \"none\" \n                -showResults \"off\" \n                -showBufferCurves \"off\" \n                -smoothness \"fine\" \n                -resultSamples 1\n                -resultScreenSamples 0\n                -resultUpdate \"delayed\" \n                -showUpstreamCurves 1\n                -stackedCurves 0\n                -stackedCurvesMin -1\n                -stackedCurvesMax 1\n                -stackedCurvesSpace 0.2\n                -displayNormalized 0\n                -preSelectionHighlight 0\n                -constrainDrag 0\n                -classicMode 1\n                $editorName;\n\t\t}\n\t} else {\n\t\t$label = `panel -q -label $panelName`;\n\t\tscriptedPanel -edit -l (localizedPanelLabel(\"Graph Editor\")) -mbv $menusOkayInPanels  $panelName;\n\n\t\t\t$editorName = ($panelName+\"OutlineEd\");\n            outlinerEditor -e \n                -showShapes 1\n                -showReferenceNodes 0\n"
		+ "                -showReferenceMembers 0\n                -showAttributes 1\n                -showConnected 1\n                -showAnimCurvesOnly 1\n                -showMuteInfo 0\n                -organizeByLayer 1\n                -showAnimLayerWeight 1\n                -autoExpandLayers 1\n                -autoExpand 1\n                -showDagOnly 0\n                -showAssets 1\n                -showContainedOnly 0\n                -showPublishedAsConnected 0\n                -showContainerContents 0\n                -ignoreDagHierarchy 0\n                -expandConnections 1\n                -showUpstreamCurves 1\n                -showUnitlessCurves 1\n                -showCompounds 0\n                -showLeafs 1\n                -showNumericAttrsOnly 1\n                -highlightActive 0\n                -autoSelectNewObjects 1\n                -doNotSelectNewObjects 0\n                -dropIsParent 1\n                -transmitFilters 1\n                -setFilter \"0\" \n                -showSetMembers 0\n                -allowMultiSelection 1\n"
		+ "                -alwaysToggleSelect 0\n                -directSelect 0\n                -displayMode \"DAG\" \n                -expandObjects 0\n                -setsIgnoreFilters 1\n                -containersIgnoreFilters 0\n                -editAttrName 0\n                -showAttrValues 0\n                -highlightSecondary 0\n                -showUVAttrsOnly 0\n                -showTextureNodesOnly 0\n                -attrAlphaOrder \"default\" \n                -animLayerFilterOptions \"allAffecting\" \n                -sortOrder \"none\" \n                -longNames 0\n                -niceNames 1\n                -showNamespace 1\n                -showPinIcons 1\n                -mapMotionTrails 1\n                -ignoreHiddenAttribute 0\n                $editorName;\n\n\t\t\t$editorName = ($panelName+\"GraphEd\");\n            animCurveEditor -e \n                -displayKeys 1\n                -displayTangents 0\n                -displayActiveKeys 0\n                -displayActiveKeyTangents 1\n                -displayInfinities 0\n                -autoFit 0\n"
		+ "                -snapTime \"integer\" \n                -snapValue \"none\" \n                -showResults \"off\" \n                -showBufferCurves \"off\" \n                -smoothness \"fine\" \n                -resultSamples 1\n                -resultScreenSamples 0\n                -resultUpdate \"delayed\" \n                -showUpstreamCurves 1\n                -stackedCurves 0\n                -stackedCurvesMin -1\n                -stackedCurvesMax 1\n                -stackedCurvesSpace 0.2\n                -displayNormalized 0\n                -preSelectionHighlight 0\n                -constrainDrag 0\n                -classicMode 1\n                $editorName;\n\t\tif (!$useSceneConfig) {\n\t\t\tpanel -e -l $label $panelName;\n\t\t}\n\t}\n\n\n\t$panelName = `sceneUIReplacement -getNextScriptedPanel \"dopeSheetPanel\" (localizedPanelLabel(\"Dope Sheet\")) `;\n\tif (\"\" == $panelName) {\n\t\tif ($useSceneConfig) {\n\t\t\t$panelName = `scriptedPanel -unParent  -type \"dopeSheetPanel\" -l (localizedPanelLabel(\"Dope Sheet\")) -mbv $menusOkayInPanels `;\n\n\t\t\t$editorName = ($panelName+\"OutlineEd\");\n"
		+ "            outlinerEditor -e \n                -showShapes 1\n                -showReferenceNodes 0\n                -showReferenceMembers 0\n                -showAttributes 1\n                -showConnected 1\n                -showAnimCurvesOnly 1\n                -showMuteInfo 0\n                -organizeByLayer 1\n                -showAnimLayerWeight 1\n                -autoExpandLayers 1\n                -autoExpand 0\n                -showDagOnly 0\n                -showAssets 1\n                -showContainedOnly 0\n                -showPublishedAsConnected 0\n                -showContainerContents 0\n                -ignoreDagHierarchy 0\n                -expandConnections 1\n                -showUpstreamCurves 1\n                -showUnitlessCurves 0\n                -showCompounds 1\n                -showLeafs 1\n                -showNumericAttrsOnly 1\n                -highlightActive 0\n                -autoSelectNewObjects 0\n                -doNotSelectNewObjects 1\n                -dropIsParent 1\n                -transmitFilters 0\n"
		+ "                -setFilter \"0\" \n                -showSetMembers 0\n                -allowMultiSelection 1\n                -alwaysToggleSelect 0\n                -directSelect 0\n                -displayMode \"DAG\" \n                -expandObjects 0\n                -setsIgnoreFilters 1\n                -containersIgnoreFilters 0\n                -editAttrName 0\n                -showAttrValues 0\n                -highlightSecondary 0\n                -showUVAttrsOnly 0\n                -showTextureNodesOnly 0\n                -attrAlphaOrder \"default\" \n                -animLayerFilterOptions \"allAffecting\" \n                -sortOrder \"none\" \n                -longNames 0\n                -niceNames 1\n                -showNamespace 1\n                -showPinIcons 0\n                -mapMotionTrails 1\n                -ignoreHiddenAttribute 0\n                $editorName;\n\n\t\t\t$editorName = ($panelName+\"DopeSheetEd\");\n            dopeSheetEditor -e \n                -displayKeys 1\n                -displayTangents 0\n                -displayActiveKeys 0\n"
		+ "                -displayActiveKeyTangents 0\n                -displayInfinities 0\n                -autoFit 0\n                -snapTime \"integer\" \n                -snapValue \"none\" \n                -outliner \"dopeSheetPanel1OutlineEd\" \n                -showSummary 1\n                -showScene 0\n                -hierarchyBelow 0\n                -showTicks 1\n                -selectionWindow 0 0 0 0 \n                $editorName;\n\t\t}\n\t} else {\n\t\t$label = `panel -q -label $panelName`;\n\t\tscriptedPanel -edit -l (localizedPanelLabel(\"Dope Sheet\")) -mbv $menusOkayInPanels  $panelName;\n\n\t\t\t$editorName = ($panelName+\"OutlineEd\");\n            outlinerEditor -e \n                -showShapes 1\n                -showReferenceNodes 0\n                -showReferenceMembers 0\n                -showAttributes 1\n                -showConnected 1\n                -showAnimCurvesOnly 1\n                -showMuteInfo 0\n                -organizeByLayer 1\n                -showAnimLayerWeight 1\n                -autoExpandLayers 1\n                -autoExpand 0\n"
		+ "                -showDagOnly 0\n                -showAssets 1\n                -showContainedOnly 0\n                -showPublishedAsConnected 0\n                -showContainerContents 0\n                -ignoreDagHierarchy 0\n                -expandConnections 1\n                -showUpstreamCurves 1\n                -showUnitlessCurves 0\n                -showCompounds 1\n                -showLeafs 1\n                -showNumericAttrsOnly 1\n                -highlightActive 0\n                -autoSelectNewObjects 0\n                -doNotSelectNewObjects 1\n                -dropIsParent 1\n                -transmitFilters 0\n                -setFilter \"0\" \n                -showSetMembers 0\n                -allowMultiSelection 1\n                -alwaysToggleSelect 0\n                -directSelect 0\n                -displayMode \"DAG\" \n                -expandObjects 0\n                -setsIgnoreFilters 1\n                -containersIgnoreFilters 0\n                -editAttrName 0\n                -showAttrValues 0\n                -highlightSecondary 0\n"
		+ "                -showUVAttrsOnly 0\n                -showTextureNodesOnly 0\n                -attrAlphaOrder \"default\" \n                -animLayerFilterOptions \"allAffecting\" \n                -sortOrder \"none\" \n                -longNames 0\n                -niceNames 1\n                -showNamespace 1\n                -showPinIcons 0\n                -mapMotionTrails 1\n                -ignoreHiddenAttribute 0\n                $editorName;\n\n\t\t\t$editorName = ($panelName+\"DopeSheetEd\");\n            dopeSheetEditor -e \n                -displayKeys 1\n                -displayTangents 0\n                -displayActiveKeys 0\n                -displayActiveKeyTangents 0\n                -displayInfinities 0\n                -autoFit 0\n                -snapTime \"integer\" \n                -snapValue \"none\" \n                -outliner \"dopeSheetPanel1OutlineEd\" \n                -showSummary 1\n                -showScene 0\n                -hierarchyBelow 0\n                -showTicks 1\n                -selectionWindow 0 0 0 0 \n                $editorName;\n"
		+ "\t\tif (!$useSceneConfig) {\n\t\t\tpanel -e -l $label $panelName;\n\t\t}\n\t}\n\n\n\t$panelName = `sceneUIReplacement -getNextScriptedPanel \"clipEditorPanel\" (localizedPanelLabel(\"Trax Editor\")) `;\n\tif (\"\" == $panelName) {\n\t\tif ($useSceneConfig) {\n\t\t\t$panelName = `scriptedPanel -unParent  -type \"clipEditorPanel\" -l (localizedPanelLabel(\"Trax Editor\")) -mbv $menusOkayInPanels `;\n\n\t\t\t$editorName = clipEditorNameFromPanel($panelName);\n            clipEditor -e \n                -displayKeys 0\n                -displayTangents 0\n                -displayActiveKeys 0\n                -displayActiveKeyTangents 0\n                -displayInfinities 0\n                -autoFit 0\n                -snapTime \"none\" \n                -snapValue \"none\" \n                -manageSequencer 0 \n                $editorName;\n\t\t}\n\t} else {\n\t\t$label = `panel -q -label $panelName`;\n\t\tscriptedPanel -edit -l (localizedPanelLabel(\"Trax Editor\")) -mbv $menusOkayInPanels  $panelName;\n\n\t\t\t$editorName = clipEditorNameFromPanel($panelName);\n            clipEditor -e \n"
		+ "                -displayKeys 0\n                -displayTangents 0\n                -displayActiveKeys 0\n                -displayActiveKeyTangents 0\n                -displayInfinities 0\n                -autoFit 0\n                -snapTime \"none\" \n                -snapValue \"none\" \n                -manageSequencer 0 \n                $editorName;\n\t\tif (!$useSceneConfig) {\n\t\t\tpanel -e -l $label $panelName;\n\t\t}\n\t}\n\n\n\t$panelName = `sceneUIReplacement -getNextScriptedPanel \"sequenceEditorPanel\" (localizedPanelLabel(\"Camera Sequencer\")) `;\n\tif (\"\" == $panelName) {\n\t\tif ($useSceneConfig) {\n\t\t\t$panelName = `scriptedPanel -unParent  -type \"sequenceEditorPanel\" -l (localizedPanelLabel(\"Camera Sequencer\")) -mbv $menusOkayInPanels `;\n\n\t\t\t$editorName = sequenceEditorNameFromPanel($panelName);\n            clipEditor -e \n                -displayKeys 0\n                -displayTangents 0\n                -displayActiveKeys 0\n                -displayActiveKeyTangents 0\n                -displayInfinities 0\n                -autoFit 0\n"
		+ "                -snapTime \"none\" \n                -snapValue \"none\" \n                -manageSequencer 1 \n                $editorName;\n\t\t}\n\t} else {\n\t\t$label = `panel -q -label $panelName`;\n\t\tscriptedPanel -edit -l (localizedPanelLabel(\"Camera Sequencer\")) -mbv $menusOkayInPanels  $panelName;\n\n\t\t\t$editorName = sequenceEditorNameFromPanel($panelName);\n            clipEditor -e \n                -displayKeys 0\n                -displayTangents 0\n                -displayActiveKeys 0\n                -displayActiveKeyTangents 0\n                -displayInfinities 0\n                -autoFit 0\n                -snapTime \"none\" \n                -snapValue \"none\" \n                -manageSequencer 1 \n                $editorName;\n\t\tif (!$useSceneConfig) {\n\t\t\tpanel -e -l $label $panelName;\n\t\t}\n\t}\n\n\n\t$panelName = `sceneUIReplacement -getNextScriptedPanel \"hyperGraphPanel\" (localizedPanelLabel(\"Hypergraph Hierarchy\")) `;\n\tif (\"\" == $panelName) {\n\t\tif ($useSceneConfig) {\n\t\t\t$panelName = `scriptedPanel -unParent  -type \"hyperGraphPanel\" -l (localizedPanelLabel(\"Hypergraph Hierarchy\")) -mbv $menusOkayInPanels `;\n"
		+ "\t\t\t$editorName = ($panelName+\"HyperGraphEd\");\n            hyperGraph -e \n                -graphLayoutStyle \"hierarchicalLayout\" \n                -orientation \"horiz\" \n                -mergeConnections 0\n                -zoom 1\n                -animateTransition 0\n                -showRelationships 1\n                -showShapes 0\n                -showDeformers 0\n                -showExpressions 0\n                -showConstraints 0\n                -showConnectionFromSelected 0\n                -showConnectionToSelected 0\n                -showConstraintLabels 0\n                -showUnderworld 0\n                -showInvisible 0\n                -transitionFrames 1\n                -opaqueContainers 0\n                -freeform 0\n                -imagePosition 0 0 \n                -imageScale 1\n                -imageEnabled 0\n                -graphType \"DAG\" \n                -heatMapDisplay 0\n                -updateSelection 1\n                -updateNodeAdded 1\n                -useDrawOverrideColor 0\n                -limitGraphTraversal -1\n"
		+ "                -range 0 0 \n                -iconSize \"smallIcons\" \n                -showCachedConnections 0\n                $editorName;\n\t\t}\n\t} else {\n\t\t$label = `panel -q -label $panelName`;\n\t\tscriptedPanel -edit -l (localizedPanelLabel(\"Hypergraph Hierarchy\")) -mbv $menusOkayInPanels  $panelName;\n\n\t\t\t$editorName = ($panelName+\"HyperGraphEd\");\n            hyperGraph -e \n                -graphLayoutStyle \"hierarchicalLayout\" \n                -orientation \"horiz\" \n                -mergeConnections 0\n                -zoom 1\n                -animateTransition 0\n                -showRelationships 1\n                -showShapes 0\n                -showDeformers 0\n                -showExpressions 0\n                -showConstraints 0\n                -showConnectionFromSelected 0\n                -showConnectionToSelected 0\n                -showConstraintLabels 0\n                -showUnderworld 0\n                -showInvisible 0\n                -transitionFrames 1\n                -opaqueContainers 0\n                -freeform 0\n"
		+ "                -imagePosition 0 0 \n                -imageScale 1\n                -imageEnabled 0\n                -graphType \"DAG\" \n                -heatMapDisplay 0\n                -updateSelection 1\n                -updateNodeAdded 1\n                -useDrawOverrideColor 0\n                -limitGraphTraversal -1\n                -range 0 0 \n                -iconSize \"smallIcons\" \n                -showCachedConnections 0\n                $editorName;\n\t\tif (!$useSceneConfig) {\n\t\t\tpanel -e -l $label $panelName;\n\t\t}\n\t}\n\n\n\t$panelName = `sceneUIReplacement -getNextScriptedPanel \"hyperShadePanel\" (localizedPanelLabel(\"Hypershade\")) `;\n\tif (\"\" == $panelName) {\n\t\tif ($useSceneConfig) {\n\t\t\t$panelName = `scriptedPanel -unParent  -type \"hyperShadePanel\" -l (localizedPanelLabel(\"Hypershade\")) -mbv $menusOkayInPanels `;\n\t\t}\n\t} else {\n\t\t$label = `panel -q -label $panelName`;\n\t\tscriptedPanel -edit -l (localizedPanelLabel(\"Hypershade\")) -mbv $menusOkayInPanels  $panelName;\n\t\tif (!$useSceneConfig) {\n\t\t\tpanel -e -l $label $panelName;\n"
		+ "\t\t}\n\t}\n\tif ($useSceneConfig) {\n\t\tscriptedPanel -e -to $panelName;\n\t}\n\n\n\t$panelName = `sceneUIReplacement -getNextScriptedPanel \"visorPanel\" (localizedPanelLabel(\"Visor\")) `;\n\tif (\"\" == $panelName) {\n\t\tif ($useSceneConfig) {\n\t\t\t$panelName = `scriptedPanel -unParent  -type \"visorPanel\" -l (localizedPanelLabel(\"Visor\")) -mbv $menusOkayInPanels `;\n\t\t}\n\t} else {\n\t\t$label = `panel -q -label $panelName`;\n\t\tscriptedPanel -edit -l (localizedPanelLabel(\"Visor\")) -mbv $menusOkayInPanels  $panelName;\n\t\tif (!$useSceneConfig) {\n\t\t\tpanel -e -l $label $panelName;\n\t\t}\n\t}\n\n\n\t$panelName = `sceneUIReplacement -getNextScriptedPanel \"nodeEditorPanel\" (localizedPanelLabel(\"Node Editor\")) `;\n\tif (\"\" == $panelName) {\n\t\tif ($useSceneConfig) {\n\t\t\t$panelName = `scriptedPanel -unParent  -type \"nodeEditorPanel\" -l (localizedPanelLabel(\"Node Editor\")) -mbv $menusOkayInPanels `;\n\n\t\t\t$editorName = ($panelName+\"NodeEditorEd\");\n            nodeEditor -e \n                -allAttributes 0\n                -allNodes 0\n                -autoSizeNodes 1\n"
		+ "                -createNodeCommand \"nodeEdCreateNodeCommand\" \n                -defaultPinnedState 0\n                -ignoreAssets 1\n                -additiveGraphingMode 0\n                -settingsChangedCallback \"nodeEdSyncControls\" \n                -traversalDepthLimit -1\n                -keyPressCommand \"nodeEdKeyPressCommand\" \n                -keyReleaseCommand \"nodeEdKeyReleaseCommand\" \n                -nodeTitleMode \"name\" \n                -gridSnap 0\n                -gridVisibility 1\n                -popupMenuScript \"nodeEdBuildPanelMenus\" \n                -showNamespace 1\n                -showShapes 1\n                -showSGShapes 0\n                -showTransforms 1\n                -useAssets 1\n                -syncedSelection 1\n                -extendToShapes 1\n                $editorName;;\n\t\t}\n\t} else {\n\t\t$label = `panel -q -label $panelName`;\n\t\tscriptedPanel -edit -l (localizedPanelLabel(\"Node Editor\")) -mbv $menusOkayInPanels  $panelName;\n\n\t\t\t$editorName = ($panelName+\"NodeEditorEd\");\n            nodeEditor -e \n"
		+ "                -allAttributes 0\n                -allNodes 0\n                -autoSizeNodes 1\n                -createNodeCommand \"nodeEdCreateNodeCommand\" \n                -defaultPinnedState 0\n                -ignoreAssets 1\n                -additiveGraphingMode 0\n                -settingsChangedCallback \"nodeEdSyncControls\" \n                -traversalDepthLimit -1\n                -keyPressCommand \"nodeEdKeyPressCommand\" \n                -keyReleaseCommand \"nodeEdKeyReleaseCommand\" \n                -nodeTitleMode \"name\" \n                -gridSnap 0\n                -gridVisibility 1\n                -popupMenuScript \"nodeEdBuildPanelMenus\" \n                -showNamespace 1\n                -showShapes 1\n                -showSGShapes 0\n                -showTransforms 1\n                -useAssets 1\n                -syncedSelection 1\n                -extendToShapes 1\n                $editorName;;\n\t\tif (!$useSceneConfig) {\n\t\t\tpanel -e -l $label $panelName;\n\t\t}\n\t}\n\n\n\t$panelName = `sceneUIReplacement -getNextScriptedPanel \"createNodePanel\" (localizedPanelLabel(\"Create Node\")) `;\n"
		+ "\tif (\"\" == $panelName) {\n\t\tif ($useSceneConfig) {\n\t\t\t$panelName = `scriptedPanel -unParent  -type \"createNodePanel\" -l (localizedPanelLabel(\"Create Node\")) -mbv $menusOkayInPanels `;\n\t\t}\n\t} else {\n\t\t$label = `panel -q -label $panelName`;\n\t\tscriptedPanel -edit -l (localizedPanelLabel(\"Create Node\")) -mbv $menusOkayInPanels  $panelName;\n\t\tif (!$useSceneConfig) {\n\t\t\tpanel -e -l $label $panelName;\n\t\t}\n\t}\n\n\n\t$panelName = `sceneUIReplacement -getNextScriptedPanel \"polyTexturePlacementPanel\" (localizedPanelLabel(\"UV Texture Editor\")) `;\n\tif (\"\" == $panelName) {\n\t\tif ($useSceneConfig) {\n\t\t\t$panelName = `scriptedPanel -unParent  -type \"polyTexturePlacementPanel\" -l (localizedPanelLabel(\"UV Texture Editor\")) -mbv $menusOkayInPanels `;\n\t\t}\n\t} else {\n\t\t$label = `panel -q -label $panelName`;\n\t\tscriptedPanel -edit -l (localizedPanelLabel(\"UV Texture Editor\")) -mbv $menusOkayInPanels  $panelName;\n\t\tif (!$useSceneConfig) {\n\t\t\tpanel -e -l $label $panelName;\n\t\t}\n\t}\n\tif ($useSceneConfig) {\n\t\tscriptedPanel -e -to $panelName;\n\t}\n\n"
		+ "\t$panelName = `sceneUIReplacement -getNextScriptedPanel \"renderWindowPanel\" (localizedPanelLabel(\"Render View\")) `;\n\tif (\"\" == $panelName) {\n\t\tif ($useSceneConfig) {\n\t\t\t$panelName = `scriptedPanel -unParent  -type \"renderWindowPanel\" -l (localizedPanelLabel(\"Render View\")) -mbv $menusOkayInPanels `;\n\t\t}\n\t} else {\n\t\t$label = `panel -q -label $panelName`;\n\t\tscriptedPanel -edit -l (localizedPanelLabel(\"Render View\")) -mbv $menusOkayInPanels  $panelName;\n\t\tif (!$useSceneConfig) {\n\t\t\tpanel -e -l $label $panelName;\n\t\t}\n\t}\n\n\n\t$panelName = `sceneUIReplacement -getNextPanel \"blendShapePanel\" (localizedPanelLabel(\"Blend Shape\")) `;\n\tif (\"\" == $panelName) {\n\t\tif ($useSceneConfig) {\n\t\t\tblendShapePanel -unParent -l (localizedPanelLabel(\"Blend Shape\")) -mbv $menusOkayInPanels ;\n\t\t}\n\t} else {\n\t\t$label = `panel -q -label $panelName`;\n\t\tblendShapePanel -edit -l (localizedPanelLabel(\"Blend Shape\")) -mbv $menusOkayInPanels  $panelName;\n\t\tif (!$useSceneConfig) {\n\t\t\tpanel -e -l $label $panelName;\n\t\t}\n\t}\n\n\n\t$panelName = `sceneUIReplacement -getNextScriptedPanel \"dynRelEdPanel\" (localizedPanelLabel(\"Dynamic Relationships\")) `;\n"
		+ "\tif (\"\" == $panelName) {\n\t\tif ($useSceneConfig) {\n\t\t\t$panelName = `scriptedPanel -unParent  -type \"dynRelEdPanel\" -l (localizedPanelLabel(\"Dynamic Relationships\")) -mbv $menusOkayInPanels `;\n\t\t}\n\t} else {\n\t\t$label = `panel -q -label $panelName`;\n\t\tscriptedPanel -edit -l (localizedPanelLabel(\"Dynamic Relationships\")) -mbv $menusOkayInPanels  $panelName;\n\t\tif (!$useSceneConfig) {\n\t\t\tpanel -e -l $label $panelName;\n\t\t}\n\t}\n\n\n\t$panelName = `sceneUIReplacement -getNextScriptedPanel \"relationshipPanel\" (localizedPanelLabel(\"Relationship Editor\")) `;\n\tif (\"\" == $panelName) {\n\t\tif ($useSceneConfig) {\n\t\t\t$panelName = `scriptedPanel -unParent  -type \"relationshipPanel\" -l (localizedPanelLabel(\"Relationship Editor\")) -mbv $menusOkayInPanels `;\n\t\t}\n\t} else {\n\t\t$label = `panel -q -label $panelName`;\n\t\tscriptedPanel -edit -l (localizedPanelLabel(\"Relationship Editor\")) -mbv $menusOkayInPanels  $panelName;\n\t\tif (!$useSceneConfig) {\n\t\t\tpanel -e -l $label $panelName;\n\t\t}\n\t}\n\n\n\t$panelName = `sceneUIReplacement -getNextScriptedPanel \"referenceEditorPanel\" (localizedPanelLabel(\"Reference Editor\")) `;\n"
		+ "\tif (\"\" == $panelName) {\n\t\tif ($useSceneConfig) {\n\t\t\t$panelName = `scriptedPanel -unParent  -type \"referenceEditorPanel\" -l (localizedPanelLabel(\"Reference Editor\")) -mbv $menusOkayInPanels `;\n\t\t}\n\t} else {\n\t\t$label = `panel -q -label $panelName`;\n\t\tscriptedPanel -edit -l (localizedPanelLabel(\"Reference Editor\")) -mbv $menusOkayInPanels  $panelName;\n\t\tif (!$useSceneConfig) {\n\t\t\tpanel -e -l $label $panelName;\n\t\t}\n\t}\n\n\n\t$panelName = `sceneUIReplacement -getNextScriptedPanel \"componentEditorPanel\" (localizedPanelLabel(\"Component Editor\")) `;\n\tif (\"\" == $panelName) {\n\t\tif ($useSceneConfig) {\n\t\t\t$panelName = `scriptedPanel -unParent  -type \"componentEditorPanel\" -l (localizedPanelLabel(\"Component Editor\")) -mbv $menusOkayInPanels `;\n\t\t}\n\t} else {\n\t\t$label = `panel -q -label $panelName`;\n\t\tscriptedPanel -edit -l (localizedPanelLabel(\"Component Editor\")) -mbv $menusOkayInPanels  $panelName;\n\t\tif (!$useSceneConfig) {\n\t\t\tpanel -e -l $label $panelName;\n\t\t}\n\t}\n\n\n\t$panelName = `sceneUIReplacement -getNextScriptedPanel \"dynPaintScriptedPanelType\" (localizedPanelLabel(\"Paint Effects\")) `;\n"
		+ "\tif (\"\" == $panelName) {\n\t\tif ($useSceneConfig) {\n\t\t\t$panelName = `scriptedPanel -unParent  -type \"dynPaintScriptedPanelType\" -l (localizedPanelLabel(\"Paint Effects\")) -mbv $menusOkayInPanels `;\n\t\t}\n\t} else {\n\t\t$label = `panel -q -label $panelName`;\n\t\tscriptedPanel -edit -l (localizedPanelLabel(\"Paint Effects\")) -mbv $menusOkayInPanels  $panelName;\n\t\tif (!$useSceneConfig) {\n\t\t\tpanel -e -l $label $panelName;\n\t\t}\n\t}\n\n\n\t$panelName = `sceneUIReplacement -getNextScriptedPanel \"scriptEditorPanel\" (localizedPanelLabel(\"Script Editor\")) `;\n\tif (\"\" == $panelName) {\n\t\tif ($useSceneConfig) {\n\t\t\t$panelName = `scriptedPanel -unParent  -type \"scriptEditorPanel\" -l (localizedPanelLabel(\"Script Editor\")) -mbv $menusOkayInPanels `;\n\t\t}\n\t} else {\n\t\t$label = `panel -q -label $panelName`;\n\t\tscriptedPanel -edit -l (localizedPanelLabel(\"Script Editor\")) -mbv $menusOkayInPanels  $panelName;\n\t\tif (!$useSceneConfig) {\n\t\t\tpanel -e -l $label $panelName;\n\t\t}\n\t}\n\n\n\tif ($useSceneConfig) {\n        string $configName = `getPanel -cwl (localizedPanelLabel(\"Current Layout\"))`;\n"
		+ "        if (\"\" != $configName) {\n\t\t\tpanelConfiguration -edit -label (localizedPanelLabel(\"Current Layout\")) \n\t\t\t\t-defaultImage \"vacantCell.xP:/\"\n\t\t\t\t-image \"\"\n\t\t\t\t-sc false\n\t\t\t\t-configString \"global string $gMainPane; paneLayout -e -cn \\\"single\\\" -ps 1 100 100 $gMainPane;\"\n\t\t\t\t-removeAllPanels\n\t\t\t\t-ap false\n\t\t\t\t\t(localizedPanelLabel(\"Persp View\")) \n\t\t\t\t\t\"modelPanel\"\n"
		+ "\t\t\t\t\t\"$panelName = `modelPanel -unParent -l (localizedPanelLabel(\\\"Persp View\\\")) -mbv $menusOkayInPanels `;\\n$editorName = $panelName;\\nmodelEditor -e \\n    -cam `findStartUpCamera persp` \\n    -useInteractiveMode 0\\n    -displayLights \\\"default\\\" \\n    -displayAppearance \\\"smoothShaded\\\" \\n    -activeOnly 0\\n    -ignorePanZoom 0\\n    -wireframeOnShaded 0\\n    -headsUpDisplay 1\\n    -selectionHiliteDisplay 1\\n    -useDefaultMaterial 0\\n    -bufferMode \\\"double\\\" \\n    -twoSidedLighting 0\\n    -backfaceCulling 0\\n    -xray 0\\n    -jointXray 0\\n    -activeComponentsXray 0\\n    -displayTextures 1\\n    -smoothWireframe 0\\n    -lineWidth 1\\n    -textureAnisotropic 0\\n    -textureHilight 1\\n    -textureSampling 2\\n    -textureDisplay \\\"modulate\\\" \\n    -textureMaxSize 16384\\n    -fogging 0\\n    -fogSource \\\"fragment\\\" \\n    -fogMode \\\"linear\\\" \\n    -fogStart 0\\n    -fogEnd 100\\n    -fogDensity 0.1\\n    -fogColor 0.5 0.5 0.5 1 \\n    -maxConstantTransparency 1\\n    -rendererName \\\"vp2Renderer\\\" \\n    -objectFilterShowInHUD 1\\n    -isFiltered 0\\n    -colorResolution 256 256 \\n    -bumpResolution 512 512 \\n    -textureCompression 0\\n    -transparencyAlgorithm \\\"frontAndBackCull\\\" \\n    -transpInShadows 0\\n    -cullingOverride \\\"none\\\" \\n    -lowQualityLighting 0\\n    -maximumNumHardwareLights 1\\n    -occlusionCulling 0\\n    -shadingModel 0\\n    -useBaseRenderer 0\\n    -useReducedRenderer 0\\n    -smallObjectCulling 0\\n    -smallObjectThreshold -1 \\n    -interactiveDisableShadows 0\\n    -interactiveBackFaceCull 0\\n    -sortTransparent 1\\n    -nurbsCurves 1\\n    -nurbsSurfaces 1\\n    -polymeshes 1\\n    -subdivSurfaces 1\\n    -planes 1\\n    -lights 1\\n    -cameras 1\\n    -controlVertices 1\\n    -hulls 1\\n    -grid 1\\n    -imagePlane 1\\n    -joints 1\\n    -ikHandles 1\\n    -deformers 1\\n    -dynamics 1\\n    -particleInstancers 1\\n    -fluids 1\\n    -hairSystems 1\\n    -follicles 1\\n    -nCloths 1\\n    -nParticles 1\\n    -nRigids 1\\n    -dynamicConstraints 1\\n    -locators 1\\n    -manipulators 1\\n    -pluginShapes 1\\n    -dimensions 1\\n    -handles 1\\n    -pivots 1\\n    -textures 1\\n    -strokes 1\\n    -motionTrails 1\\n    -clipGhosts 1\\n    -greasePencils 1\\n    -shadows 0\\n    $editorName;\\nmodelEditor -e -viewSelected 0 $editorName;\\nmodelEditor -e \\n    -pluginObjects \\\"gpuCacheDisplayFilter\\\" 1 \\n    $editorName\"\n"
		+ "\t\t\t\t\t\"modelPanel -edit -l (localizedPanelLabel(\\\"Persp View\\\")) -mbv $menusOkayInPanels  $panelName;\\n$editorName = $panelName;\\nmodelEditor -e \\n    -cam `findStartUpCamera persp` \\n    -useInteractiveMode 0\\n    -displayLights \\\"default\\\" \\n    -displayAppearance \\\"smoothShaded\\\" \\n    -activeOnly 0\\n    -ignorePanZoom 0\\n    -wireframeOnShaded 0\\n    -headsUpDisplay 1\\n    -selectionHiliteDisplay 1\\n    -useDefaultMaterial 0\\n    -bufferMode \\\"double\\\" \\n    -twoSidedLighting 0\\n    -backfaceCulling 0\\n    -xray 0\\n    -jointXray 0\\n    -activeComponentsXray 0\\n    -displayTextures 1\\n    -smoothWireframe 0\\n    -lineWidth 1\\n    -textureAnisotropic 0\\n    -textureHilight 1\\n    -textureSampling 2\\n    -textureDisplay \\\"modulate\\\" \\n    -textureMaxSize 16384\\n    -fogging 0\\n    -fogSource \\\"fragment\\\" \\n    -fogMode \\\"linear\\\" \\n    -fogStart 0\\n    -fogEnd 100\\n    -fogDensity 0.1\\n    -fogColor 0.5 0.5 0.5 1 \\n    -maxConstantTransparency 1\\n    -rendererName \\\"vp2Renderer\\\" \\n    -objectFilterShowInHUD 1\\n    -isFiltered 0\\n    -colorResolution 256 256 \\n    -bumpResolution 512 512 \\n    -textureCompression 0\\n    -transparencyAlgorithm \\\"frontAndBackCull\\\" \\n    -transpInShadows 0\\n    -cullingOverride \\\"none\\\" \\n    -lowQualityLighting 0\\n    -maximumNumHardwareLights 1\\n    -occlusionCulling 0\\n    -shadingModel 0\\n    -useBaseRenderer 0\\n    -useReducedRenderer 0\\n    -smallObjectCulling 0\\n    -smallObjectThreshold -1 \\n    -interactiveDisableShadows 0\\n    -interactiveBackFaceCull 0\\n    -sortTransparent 1\\n    -nurbsCurves 1\\n    -nurbsSurfaces 1\\n    -polymeshes 1\\n    -subdivSurfaces 1\\n    -planes 1\\n    -lights 1\\n    -cameras 1\\n    -controlVertices 1\\n    -hulls 1\\n    -grid 1\\n    -imagePlane 1\\n    -joints 1\\n    -ikHandles 1\\n    -deformers 1\\n    -dynamics 1\\n    -particleInstancers 1\\n    -fluids 1\\n    -hairSystems 1\\n    -follicles 1\\n    -nCloths 1\\n    -nParticles 1\\n    -nRigids 1\\n    -dynamicConstraints 1\\n    -locators 1\\n    -manipulators 1\\n    -pluginShapes 1\\n    -dimensions 1\\n    -handles 1\\n    -pivots 1\\n    -textures 1\\n    -strokes 1\\n    -motionTrails 1\\n    -clipGhosts 1\\n    -greasePencils 1\\n    -shadows 0\\n    $editorName;\\nmodelEditor -e -viewSelected 0 $editorName;\\nmodelEditor -e \\n    -pluginObjects \\\"gpuCacheDisplayFilter\\\" 1 \\n    $editorName\"\n"
		+ "\t\t\t\t$configName;\n\n            setNamedPanelLayout (localizedPanelLabel(\"Current Layout\"));\n        }\n\n        panelHistory -e -clear mainPanelHistory;\n        setFocus `paneLayout -q -p1 $gMainPane`;\n        sceneUIReplacement -deleteRemaining;\n        sceneUIReplacement -clear;\n\t}\n\n\ngrid -spacing 5 -size 12 -divisions 15 -displayAxes yes -displayGridLines yes -displayDivisionLines yes -displayPerspectiveLabels no -displayOrthographicLabels no -displayAxesBold yes -perspectiveLabelPosition axis -orthographicLabelPosition edge;\nviewManip -drawCompass 0 -compassAngle 0 -frontParameters \"\" -homeParameters \"\" -selectionLockParameters \"\";\n}\n");
	setAttr ".st" 3;
createNode script -n "sceneConfigurationScriptNode";
	setAttr ".b" -type "string" "playbackOptions -min 1 -max 120 -ast 1 -aet 200 ";
	setAttr ".st" 6;
select -ne :time1;
	setAttr ".o" 1;
	setAttr ".unw" 1;
select -ne :renderPartition;
	setAttr -s 4 ".st";
select -ne :renderGlobalsList1;
select -ne :defaultShaderList1;
	setAttr -s 4 ".s";
select -ne :postProcessList1;
	setAttr -s 2 ".p";
select -ne :defaultRenderUtilityList1;
select -ne :defaultRenderingList1;
select -ne :defaultTextureList1;
select -ne :initialShadingGroup;
	setAttr -s 2 ".dsm";
	setAttr ".ro" yes;
	setAttr -s 2 ".gn";
select -ne :initialParticleSE;
	setAttr ".ro" yes;
select -ne :defaultResolution;
	setAttr ".pa" 1;
select -ne :hardwareRenderGlobals;
	setAttr ".ctrs" 256;
	setAttr ".btrs" 512;
select -ne :hardwareRenderingGlobals;
	setAttr ".otfna" -type "stringArray" 22 "NURBS Curves" "NURBS Surfaces" "Polygons" "Subdiv Surface" "Particles" "Particle Instance" "Fluids" "Strokes" "Image Planes" "UI" "Lights" "Cameras" "Locators" "Joints" "IK Handles" "Deformers" "Motion Trails" "Components" "Hair Systems" "Follicles" "Misc. UI" "Ornaments"  ;
	setAttr ".otfva" -type "Int32Array" 22 0 1 1 1 1 1
		 1 1 1 0 0 0 0 0 0 0 0 0
		 0 0 0 0 ;
select -ne :defaultHardwareRenderGlobals;
	setAttr ".res" -type "string" "ntsc_4d 646 485 1.333";
select -ne :ikSystem;
	setAttr -s 4 ".sol";
connectAttr "groupParts2.og" "polySurfaceShape2.i";
connectAttr "groupId3.id" "polySurfaceShape2.iog.og[1].gid";
connectAttr "blinn2SG.mwc" "polySurfaceShape2.iog.og[1].gco";
connectAttr "groupId4.id" "polySurfaceShape2.ciog.cog[0].cgid";
connectAttr "groupId1.id" "pCubeShape1.iog.og[1].gid";
connectAttr ":initialShadingGroup.mwc" "pCubeShape1.iog.og[1].gco";
connectAttr "groupParts1.og" "pCubeShape1.i";
connectAttr "groupId2.id" "pCubeShape1.ciog.cog[1].cgid";
connectAttr "groupId5.id" "pCylinderShape2.iog.og[0].gid";
connectAttr "blinn1SG.mwc" "pCylinderShape2.iog.og[0].gco";
connectAttr "groupParts3.og" "pCylinderShape2.i";
connectAttr "groupId6.id" "pCylinderShape2.ciog.cog[0].cgid";
connectAttr "groupParts5.og" "polySurface2Shape.i";
connectAttr "groupId7.id" "polySurface2Shape.iog.og[0].gid";
connectAttr "blinn2SG.mwc" "polySurface2Shape.iog.og[0].gco";
connectAttr "groupId8.id" "polySurface2Shape.iog.og[1].gid";
connectAttr "blinn1SG.mwc" "polySurface2Shape.iog.og[1].gco";
relationship "link" ":lightLinker1" ":initialShadingGroup.message" ":defaultLightSet.message";
relationship "link" ":lightLinker1" ":initialParticleSE.message" ":defaultLightSet.message";
relationship "link" ":lightLinker1" "blinn1SG.message" ":defaultLightSet.message";
relationship "link" ":lightLinker1" "blinn2SG.message" ":defaultLightSet.message";
relationship "shadowLink" ":lightLinker1" ":initialShadingGroup.message" ":defaultLightSet.message";
relationship "shadowLink" ":lightLinker1" ":initialParticleSE.message" ":defaultLightSet.message";
relationship "shadowLink" ":lightLinker1" "blinn1SG.message" ":defaultLightSet.message";
relationship "shadowLink" ":lightLinker1" "blinn2SG.message" ":defaultLightSet.message";
connectAttr "layerManager.dli[0]" "defaultLayer.id";
connectAttr "renderLayerManager.rlmi[0]" "defaultRenderLayer.rlid";
connectAttr "polyCube1.out" "polyDuplicateEdge1.ip";
connectAttr "polyDuplicateEdge1.out" "polyDuplicateEdge2.ip";
connectAttr "polyDuplicateEdge2.out" "deleteComponent1.ig";
connectAttr "deleteComponent1.og" "polyExtrudeFace1.ip";
connectAttr "pCubeShape1.wm" "polyExtrudeFace1.mp";
connectAttr "polyExtrudeFace1.out" "polySplitRing1.ip";
connectAttr "pCubeShape1.wm" "polySplitRing1.mp";
connectAttr "polySplitRing1.out" "polySplitRing2.ip";
connectAttr "pCubeShape1.wm" "polySplitRing2.mp";
connectAttr "polySplitRing2.out" "polySplitRing3.ip";
connectAttr "pCubeShape1.wm" "polySplitRing3.mp";
connectAttr "polySplitRing3.out" "polySplitRing4.ip";
connectAttr "pCubeShape1.wm" "polySplitRing4.mp";
connectAttr "polyTweak1.out" "polyExtrudeFace2.ip";
connectAttr "pCubeShape1.wm" "polyExtrudeFace2.mp";
connectAttr "polySplitRing4.out" "polyTweak1.ip";
connectAttr "polyExtrudeFace2.out" "polySplitRing5.ip";
connectAttr "pCubeShape1.wm" "polySplitRing5.mp";
connectAttr "polySplitRing5.out" "polySplitRing6.ip";
connectAttr "pCubeShape1.wm" "polySplitRing6.mp";
connectAttr "polySplitRing6.out" "polySplitRing7.ip";
connectAttr "pCubeShape1.wm" "polySplitRing7.mp";
connectAttr "polySplitRing7.out" "polySplitRing8.ip";
connectAttr "pCubeShape1.wm" "polySplitRing8.mp";
connectAttr "polySplitRing8.out" "polySplitRing9.ip";
connectAttr "pCubeShape1.wm" "polySplitRing9.mp";
connectAttr "polySplitRing9.out" "polySplitRing10.ip";
connectAttr "pCubeShape1.wm" "polySplitRing10.mp";
connectAttr "polyTweak2.out" "polyChipOff1.ip";
connectAttr "pCubeShape1.wm" "polyChipOff1.mp";
connectAttr "polySplitRing10.out" "polyTweak2.ip";
connectAttr "pCubeShape1.o" "polySeparate1.ip";
connectAttr "polyChipOff1.out" "groupParts1.ig";
connectAttr "groupId1.id" "groupParts1.gi";
connectAttr "polyCylinder2.out" "polySplitRing11.ip";
connectAttr "pCylinderShape2.wm" "polySplitRing11.mp";
connectAttr "polySplitRing11.out" "polyExtrudeFace3.ip";
connectAttr "pCylinderShape2.wm" "polyExtrudeFace3.mp";
connectAttr "polyExtrudeFace3.out" "polyAutoProj1.ip";
connectAttr "pCylinderShape2.wm" "polyAutoProj1.mp";
connectAttr "file1.oc" "blinn1.c";
connectAttr "file1.ot" "blinn1.it";
connectAttr "blinn1.oc" "blinn1SG.ss";
connectAttr "pCylinderShape2.iog.og[0]" "blinn1SG.dsm" -na;
connectAttr "pCylinderShape2.ciog.cog[0]" "blinn1SG.dsm" -na;
connectAttr "polySurface2Shape.iog.og[1]" "blinn1SG.dsm" -na;
connectAttr "groupId5.msg" "blinn1SG.gn" -na;
connectAttr "groupId6.msg" "blinn1SG.gn" -na;
connectAttr "groupId8.msg" "blinn1SG.gn" -na;
connectAttr "blinn1SG.msg" "materialInfo1.sg";
connectAttr "blinn1.msg" "materialInfo1.m";
connectAttr "file1.msg" "materialInfo1.t" -na;
connectAttr "place2dTexture1.c" "file1.c";
connectAttr "place2dTexture1.tf" "file1.tf";
connectAttr "place2dTexture1.rf" "file1.rf";
connectAttr "place2dTexture1.mu" "file1.mu";
connectAttr "place2dTexture1.mv" "file1.mv";
connectAttr "place2dTexture1.s" "file1.s";
connectAttr "place2dTexture1.wu" "file1.wu";
connectAttr "place2dTexture1.wv" "file1.wv";
connectAttr "place2dTexture1.re" "file1.re";
connectAttr "place2dTexture1.of" "file1.of";
connectAttr "place2dTexture1.r" "file1.ro";
connectAttr "place2dTexture1.n" "file1.n";
connectAttr "place2dTexture1.vt1" "file1.vt1";
connectAttr "place2dTexture1.vt2" "file1.vt2";
connectAttr "place2dTexture1.vt3" "file1.vt3";
connectAttr "place2dTexture1.vc1" "file1.vc1";
connectAttr "place2dTexture1.o" "file1.uv";
connectAttr "place2dTexture1.ofs" "file1.fs";
connectAttr "blinn2.oc" "blinn2SG.ss";
connectAttr "polySurfaceShape2.iog.og[1]" "blinn2SG.dsm" -na;
connectAttr "polySurfaceShape2.ciog.cog[0]" "blinn2SG.dsm" -na;
connectAttr "polySurface2Shape.iog.og[0]" "blinn2SG.dsm" -na;
connectAttr "groupId3.msg" "blinn2SG.gn" -na;
connectAttr "groupId4.msg" "blinn2SG.gn" -na;
connectAttr "groupId7.msg" "blinn2SG.gn" -na;
connectAttr "blinn2SG.msg" "materialInfo2.sg";
connectAttr "blinn2.msg" "materialInfo2.m";
connectAttr "polySeparate1.out[1]" "polySmoothFace1.ip";
connectAttr "polyAutoProj1.out" "polySmoothFace2.ip";
connectAttr "polySurfaceShape2.o" "polyUnite1.ip[0]";
connectAttr "pCylinderShape2.o" "polyUnite1.ip[1]";
connectAttr "polySurfaceShape2.wm" "polyUnite1.im[0]";
connectAttr "pCylinderShape2.wm" "polyUnite1.im[1]";
connectAttr "polySmoothFace1.out" "groupParts2.ig";
connectAttr "groupId3.id" "groupParts2.gi";
connectAttr "polySmoothFace2.out" "groupParts3.ig";
connectAttr "groupId5.id" "groupParts3.gi";
connectAttr "polyUnite1.out" "groupParts4.ig";
connectAttr "groupId7.id" "groupParts4.gi";
connectAttr "groupParts4.og" "groupParts5.ig";
connectAttr "groupId8.id" "groupParts5.gi";
connectAttr "blinn1SG.pa" ":renderPartition.st" -na;
connectAttr "blinn2SG.pa" ":renderPartition.st" -na;
connectAttr "blinn1.msg" ":defaultShaderList1.s" -na;
connectAttr "blinn2.msg" ":defaultShaderList1.s" -na;
connectAttr "place2dTexture1.msg" ":defaultRenderUtilityList1.u" -na;
connectAttr "defaultRenderLayer.msg" ":defaultRenderingList1.r" -na;
connectAttr "file1.msg" ":defaultTextureList1.tx" -na;
connectAttr "pCubeShape1.iog.og[1]" ":initialShadingGroup.dsm" -na;
connectAttr "pCubeShape1.ciog.cog[1]" ":initialShadingGroup.dsm" -na;
connectAttr "groupId1.msg" ":initialShadingGroup.gn" -na;
connectAttr "groupId2.msg" ":initialShadingGroup.gn" -na;
dataStructure -fmt "raw" -as "name=externalContentTable:string=node:string=key:string=upath:uint32=upathcrc:string=rpath:string=roles";
applyMetadata -fmt "raw" -v "channel\nname externalContentTable\nstream\nname v1.0\nindexType numeric\nstructure externalContentTable\n0\n\"file1\" \"fileTextureName\" \"C:/Users/Armando/Documents/6 semestre/objetos2/sourceimages/color2.tga\" 580420528 \"C:/Users/Armando/Documents/6 semestre/objetos2/sourceimages/color2.tga\" \"sourceImages\"\nendStream\nendChannel\nendAssociations\n" 
		-scn;
// End of compas.ma
